# Blender v2.80 (sub 75) OBJ File: 'AncientWatch_Casing.blend'
# www.blender.org
mtllib AncientWatch_Casing.mtl
v 0.000000 0.080000 -0.910929
v 0.089287 0.080000 -0.906543
v 0.177714 0.080000 -0.893426
v 0.264429 0.080000 -0.871705
v 0.348598 0.080000 -0.841589
v 0.429409 0.080000 -0.803368
v 0.506085 0.080000 -0.757410
v 0.577888 0.080000 -0.704158
v 0.644124 0.080000 -0.644125
v 0.704158 0.080000 -0.577888
v 0.757410 0.080000 -0.506085
v 0.803368 0.080000 -0.429409
v 0.841589 0.080000 -0.348598
v 0.871705 0.080000 -0.264429
v 0.893426 0.080000 -0.177713
v 0.906543 0.080000 -0.089287
v 0.910929 0.080000 0.000000
v 0.906543 0.080000 0.089287
v 0.893426 0.080000 0.177714
v 0.871705 0.080000 0.264429
v 0.841589 0.080000 0.348598
v 0.803368 0.080000 0.429409
v 0.757410 0.080000 0.506086
v 0.704158 0.080000 0.577888
v 0.644124 0.080000 0.644125
v 0.577887 0.080000 0.704158
v 0.506085 0.080000 0.757411
v 0.429409 0.080000 0.803368
v 0.348597 0.080000 0.841589
v 0.264428 0.080000 0.871705
v 0.177713 0.080000 0.893426
v 0.089286 0.080000 0.906543
v -0.000001 0.080000 0.910930
v -0.089287 0.080000 0.906543
v -0.177714 0.080000 0.893426
v -0.264430 0.080000 0.871705
v -0.348598 0.080000 0.841589
v -0.429410 0.080000 0.803368
v -0.506086 0.080000 0.757410
v -0.577888 0.080000 0.704157
v -0.644125 0.080000 0.644124
v -0.704159 0.080000 0.577887
v -0.757411 0.080000 0.506085
v -0.803368 0.080000 0.429409
v -0.841589 0.080000 0.348597
v -0.871705 0.080000 0.264429
v -0.893426 0.080000 0.177714
v -0.906543 0.080000 0.089287
v -0.910929 0.080000 0.000000
v -0.906543 0.080000 -0.089286
v -0.893426 0.080000 -0.177713
v -0.871705 0.080000 -0.264428
v -0.841590 0.080000 -0.348597
v -0.803369 0.080000 -0.429408
v -0.757411 0.080000 -0.506084
v -0.704159 0.080000 -0.577886
v -0.644126 0.080000 -0.644123
v -0.577889 0.080000 -0.704157
v -0.506087 0.080000 -0.757409
v -0.429411 0.080000 -0.803367
v -0.348600 0.080000 -0.841588
v -0.264432 0.080000 -0.871704
v -0.177716 0.080000 -0.893426
v -0.089290 0.080000 -0.906543
v 0.103957 0.080000 -1.055489
v 0.107819 0.040644 -1.094703
v 0.104956 0.078659 -1.065638
v 0.105888 0.074727 -1.075096
v 0.106688 0.068473 -1.083218
v 0.107301 0.060322 -1.089449
v 0.107687 0.050830 -1.093367
v 0.000000 0.040644 -1.100000
v 0.000000 0.080000 -1.060596
v 0.000000 0.050830 -1.098657
v 0.000000 0.060322 -1.094721
v 0.000000 0.068473 -1.088459
v 0.000000 0.074727 -1.080298
v 0.000000 0.078659 -1.070795
v 0.206912 0.080000 -1.040217
v 0.214599 0.040644 -1.078864
v 0.208902 0.078659 -1.050220
v 0.210756 0.074727 -1.059541
v 0.212348 0.068473 -1.067545
v 0.213569 0.060322 -1.073686
v 0.214337 0.050830 -1.077547
v 0.307875 0.080000 -1.014927
v 0.319313 0.040644 -1.052634
v 0.310835 0.078659 -1.024687
v 0.313594 0.074727 -1.033781
v 0.315963 0.068473 -1.041590
v 0.317781 0.060322 -1.047583
v 0.318923 0.050830 -1.051349
v 0.405873 0.080000 -0.979863
v 0.420952 0.040644 -1.016267
v 0.409775 0.078659 -0.989285
v 0.413412 0.074727 -0.998065
v 0.416535 0.068473 -1.005605
v 0.418932 0.060322 -1.011390
v 0.420438 0.050830 -1.015027
v 0.499962 0.080000 -0.935362
v 0.518536 0.040644 -0.970113
v 0.504769 0.078659 -0.944357
v 0.509249 0.074727 -0.952738
v 0.513096 0.068473 -0.959935
v 0.516048 0.060322 -0.965458
v 0.517904 0.050830 -0.968929
v 0.589236 0.080000 -0.881854
v 0.611127 0.040644 -0.914617
v 0.594902 0.078659 -0.890333
v 0.600181 0.074727 -0.898235
v 0.604715 0.068473 -0.905020
v 0.608194 0.060322 -0.910227
v 0.610381 0.050830 -0.913500
v 0.672835 0.080000 -0.819852
v 0.697833 0.040644 -0.850312
v 0.679305 0.078659 -0.827736
v 0.685334 0.074727 -0.835082
v 0.690511 0.068473 -0.841390
v 0.694484 0.060322 -0.846231
v 0.696981 0.050830 -0.849274
v 0.749955 0.080000 -0.749955
v 0.777817 0.040644 -0.777818
v 0.757166 0.078659 -0.757166
v 0.763886 0.074727 -0.763886
v 0.769657 0.068473 -0.769657
v 0.774085 0.060322 -0.774085
v 0.776868 0.050830 -0.776868
v 0.819852 0.080000 -0.672835
v 0.850312 0.040644 -0.697833
v 0.827736 0.078659 -0.679305
v 0.835082 0.074727 -0.685334
v 0.841390 0.068473 -0.690511
v 0.846231 0.060322 -0.694484
v 0.849274 0.050830 -0.696981
v 0.881854 0.080000 -0.589236
v 0.914617 0.040644 -0.611127
v 0.890333 0.078659 -0.594902
v 0.898235 0.074727 -0.600182
v 0.905020 0.068473 -0.604715
v 0.910227 0.060322 -0.608194
v 0.913500 0.050830 -0.610381
v 0.935362 0.080000 -0.499962
v 0.970113 0.040644 -0.518536
v 0.944357 0.078659 -0.504769
v 0.952738 0.074727 -0.509249
v 0.959935 0.068473 -0.513096
v 0.965458 0.060322 -0.516048
v 0.968929 0.050830 -0.517904
v 0.979863 0.080000 -0.405873
v 1.016267 0.040644 -0.420952
v 0.989285 0.078659 -0.409775
v 0.998065 0.074727 -0.413412
v 1.005605 0.068473 -0.416535
v 1.011390 0.060322 -0.418932
v 1.015027 0.050830 -0.420438
v 1.014927 0.080000 -0.307875
v 1.052634 0.040644 -0.319313
v 1.024687 0.078659 -0.310835
v 1.033781 0.074727 -0.313594
v 1.041590 0.068473 -0.315963
v 1.047583 0.060322 -0.317781
v 1.051349 0.050830 -0.318923
v 1.040217 0.080000 -0.206912
v 1.078864 0.040644 -0.214599
v 1.050220 0.078659 -0.208902
v 1.059540 0.074727 -0.210756
v 1.067544 0.068473 -0.212348
v 1.073686 0.060322 -0.213569
v 1.077547 0.050830 -0.214337
v 1.055489 0.080000 -0.103956
v 1.094703 0.040644 -0.107819
v 1.065638 0.078659 -0.104956
v 1.075096 0.074727 -0.105888
v 1.083218 0.068473 -0.106687
v 1.089449 0.060322 -0.107301
v 1.093367 0.050830 -0.107687
v 1.060596 0.080000 0.000000
v 1.100000 0.040644 0.000000
v 1.070795 0.078659 0.000000
v 1.080298 0.074727 0.000000
v 1.088459 0.068473 0.000000
v 1.094721 0.060322 0.000000
v 1.098657 0.050830 0.000000
v 1.055489 0.080000 0.103957
v 1.094703 0.040644 0.107819
v 1.065638 0.078659 0.104956
v 1.075096 0.074727 0.105888
v 1.083218 0.068473 0.106688
v 1.089449 0.060322 0.107302
v 1.093367 0.050830 0.107687
v 1.040217 0.080000 0.206912
v 1.078864 0.040644 0.214600
v 1.050220 0.078659 0.208902
v 1.059541 0.074727 0.210756
v 1.067545 0.068473 0.212348
v 1.073686 0.060322 0.213570
v 1.077547 0.050830 0.214338
v 1.014927 0.080000 0.307875
v 1.052634 0.040644 0.319313
v 1.024687 0.078659 0.310836
v 1.033781 0.074727 0.313594
v 1.041590 0.068473 0.315963
v 1.047583 0.060322 0.317781
v 1.051350 0.050830 0.318924
v 0.979863 0.080000 0.405873
v 1.016267 0.040644 0.420952
v 0.989285 0.078659 0.409776
v 0.998065 0.074727 0.413412
v 1.005605 0.068473 0.416535
v 1.011390 0.060322 0.418932
v 1.015027 0.050830 0.420438
v 0.935362 0.080000 0.499962
v 0.970113 0.040644 0.518537
v 0.944356 0.078659 0.504769
v 0.952738 0.074727 0.509249
v 0.959935 0.068473 0.513096
v 0.965457 0.060322 0.516048
v 0.968929 0.050830 0.517904
v 0.881853 0.080000 0.589236
v 0.914616 0.040644 0.611128
v 0.890333 0.078659 0.594902
v 0.898235 0.074727 0.600182
v 0.905020 0.068473 0.604716
v 0.910227 0.060322 0.608195
v 0.913500 0.050830 0.610382
v 0.819852 0.080000 0.672836
v 0.850311 0.040644 0.697833
v 0.827735 0.078659 0.679305
v 0.835081 0.074727 0.685334
v 0.841390 0.068473 0.690511
v 0.846230 0.060322 0.694484
v 0.849273 0.050830 0.696981
v 0.749955 0.080000 0.749955
v 0.777817 0.040644 0.777818
v 0.757166 0.078659 0.757167
v 0.763886 0.074727 0.763887
v 0.769656 0.068473 0.769657
v 0.774084 0.060322 0.774085
v 0.776868 0.050830 0.776868
v 0.672835 0.080000 0.819852
v 0.697832 0.040644 0.850312
v 0.679304 0.078659 0.827736
v 0.685333 0.074727 0.835082
v 0.690511 0.068473 0.841390
v 0.694483 0.060322 0.846231
v 0.696980 0.050830 0.849274
v 0.589235 0.080000 0.881854
v 0.611127 0.040644 0.914617
v 0.594901 0.078659 0.890334
v 0.600181 0.074727 0.898235
v 0.604715 0.068473 0.905021
v 0.608194 0.060322 0.910228
v 0.610381 0.050830 0.913501
v 0.499961 0.080000 0.935363
v 0.518536 0.040644 0.970114
v 0.504769 0.078659 0.944357
v 0.509248 0.074727 0.952738
v 0.513095 0.068473 0.959935
v 0.516047 0.060322 0.965458
v 0.517903 0.050830 0.968930
v 0.405872 0.080000 0.979863
v 0.420951 0.040644 1.016268
v 0.409775 0.078659 0.989286
v 0.413412 0.074727 0.998066
v 0.416535 0.068473 1.005605
v 0.418931 0.060322 1.011390
v 0.420437 0.050830 1.015027
v 0.307874 0.080000 1.014928
v 0.319312 0.040644 1.052635
v 0.310835 0.078659 1.024687
v 0.313593 0.074727 1.033781
v 0.315962 0.068473 1.041590
v 0.317780 0.060322 1.047583
v 0.318923 0.050830 1.051350
v 0.206911 0.080000 1.040217
v 0.214599 0.040644 1.078864
v 0.208901 0.078659 1.050220
v 0.210755 0.074727 1.059541
v 0.212347 0.068473 1.067545
v 0.213569 0.060322 1.073686
v 0.214337 0.050830 1.077547
v 0.103956 0.080000 1.055489
v 0.107818 0.040644 1.094703
v 0.104955 0.078659 1.065639
v 0.105887 0.074727 1.075096
v 0.106687 0.068473 1.083218
v 0.107301 0.060322 1.089450
v 0.107686 0.050830 1.093367
v -0.000001 0.080000 1.060596
v -0.000001 0.040644 1.100000
v -0.000001 0.078659 1.070795
v -0.000001 0.074727 1.080298
v -0.000001 0.068473 1.088459
v -0.000001 0.060322 1.094721
v -0.000001 0.050830 1.098657
v -0.103958 0.080000 1.055489
v -0.107820 0.040644 1.094703
v -0.104957 0.078659 1.065638
v -0.105889 0.074727 1.075096
v -0.106689 0.068473 1.083218
v -0.107302 0.060322 1.089449
v -0.107688 0.050830 1.093367
v -0.206913 0.080000 1.040217
v -0.214600 0.040644 1.078864
v -0.208903 0.078659 1.050219
v -0.210757 0.074727 1.059540
v -0.212349 0.068473 1.067544
v -0.213570 0.060322 1.073686
v -0.214338 0.050830 1.077547
v -0.307876 0.080000 1.014927
v -0.319314 0.040644 1.052634
v -0.310836 0.078659 1.024686
v -0.313595 0.074727 1.033781
v -0.315964 0.068473 1.041590
v -0.317782 0.060322 1.047582
v -0.318924 0.050830 1.051349
v -0.405874 0.080000 0.979863
v -0.420953 0.040644 1.016267
v -0.409776 0.078659 0.989285
v -0.413413 0.074727 0.998065
v -0.416536 0.068473 1.005604
v -0.418932 0.060322 1.011390
v -0.420439 0.050830 1.015027
v -0.499963 0.080000 0.935362
v -0.518537 0.040644 0.970113
v -0.504770 0.078659 0.944356
v -0.509250 0.074727 0.952737
v -0.513097 0.068473 0.959935
v -0.516049 0.060322 0.965457
v -0.517905 0.050830 0.968929
v -0.589237 0.080000 0.881853
v -0.611128 0.040644 0.914616
v -0.594903 0.078659 0.890333
v -0.600182 0.074727 0.898234
v -0.604716 0.068473 0.905020
v -0.608195 0.060322 0.910227
v -0.610382 0.050830 0.913500
v -0.672836 0.080000 0.819851
v -0.697834 0.040644 0.850311
v -0.679306 0.078659 0.827735
v -0.685335 0.074727 0.835081
v -0.690512 0.068473 0.841389
v -0.694485 0.060322 0.846230
v -0.696982 0.050830 0.849273
v -0.749956 0.080000 0.749954
v -0.777818 0.040644 0.777817
v -0.757167 0.078659 0.757165
v -0.763887 0.074727 0.763885
v -0.769658 0.068473 0.769656
v -0.774085 0.060322 0.774084
v -0.776869 0.050830 0.776867
v -0.819853 0.080000 0.672834
v -0.850312 0.040644 0.697832
v -0.827736 0.078659 0.679304
v -0.835082 0.074727 0.685333
v -0.841391 0.068473 0.690510
v -0.846231 0.060322 0.694483
v -0.849274 0.050830 0.696980
v -0.881854 0.080000 0.589235
v -0.914617 0.040644 0.611127
v -0.890334 0.078659 0.594901
v -0.898236 0.074727 0.600181
v -0.905021 0.068473 0.604715
v -0.910228 0.060322 0.608194
v -0.913501 0.050830 0.610381
v -0.935363 0.080000 0.499961
v -0.970114 0.040644 0.518536
v -0.944357 0.078659 0.504769
v -0.952738 0.074727 0.509248
v -0.959935 0.068473 0.513095
v -0.965458 0.060322 0.516047
v -0.968930 0.050830 0.517903
v -0.979863 0.080000 0.405872
v -1.016268 0.040644 0.420951
v -0.989285 0.078659 0.409775
v -0.998065 0.074727 0.413412
v -1.005605 0.068473 0.416535
v -1.011390 0.060322 0.418931
v -1.015027 0.050830 0.420438
v -1.014927 0.080000 0.307875
v -1.052634 0.040644 0.319313
v -1.024687 0.078659 0.310835
v -1.033781 0.074727 0.313594
v -1.041590 0.068473 0.315963
v -1.047583 0.060322 0.317781
v -1.051349 0.050830 0.318923
v -1.040217 0.080000 0.206912
v -1.078864 0.040644 0.214599
v -1.050220 0.078659 0.208902
v -1.059541 0.074727 0.210756
v -1.067545 0.068473 0.212348
v -1.073686 0.060322 0.213570
v -1.077547 0.050830 0.214338
v -1.055489 0.080000 0.103957
v -1.094703 0.040644 0.107819
v -1.065638 0.078659 0.104957
v -1.075096 0.074727 0.105888
v -1.083218 0.068473 0.106688
v -1.089449 0.060322 0.107302
v -1.093367 0.050830 0.107688
v -1.060596 0.080000 0.000000
v -1.100000 0.040644 0.000001
v -1.070795 0.078659 0.000001
v -1.080298 0.074727 0.000001
v -1.088459 0.068473 0.000001
v -1.094721 0.060322 0.000001
v -1.098657 0.050830 0.000001
v -1.055489 0.080000 -0.103956
v -1.094703 0.040644 -0.107818
v -1.065639 0.078659 -0.104956
v -1.075096 0.074727 -0.105887
v -1.083218 0.068473 -0.106687
v -1.089450 0.060322 -0.107301
v -1.093367 0.050830 -0.107687
v -1.040217 0.080000 -0.206911
v -1.078864 0.040644 -0.214598
v -1.050220 0.078659 -0.208901
v -1.059541 0.074727 -0.210755
v -1.067545 0.068473 -0.212347
v -1.073686 0.060322 -0.213569
v -1.077547 0.050830 -0.214337
v -1.014928 0.080000 -0.307874
v -1.052635 0.040644 -0.319312
v -1.024687 0.078659 -0.310834
v -1.033781 0.074727 -0.313593
v -1.041591 0.068473 -0.315962
v -1.047583 0.060322 -0.317780
v -1.051350 0.050830 -0.318922
v -0.979864 0.080000 -0.405871
v -1.016268 0.040644 -0.420951
v -0.989286 0.078659 -0.409774
v -0.998066 0.074727 -0.413411
v -1.005605 0.068473 -0.416534
v -1.011391 0.060322 -0.418930
v -1.015028 0.050830 -0.420437
v -0.935363 0.080000 -0.499960
v -0.970114 0.040644 -0.518535
v -0.944357 0.078659 -0.504768
v -0.952739 0.074727 -0.509248
v -0.959936 0.068473 -0.513095
v -0.965458 0.060322 -0.516046
v -0.968930 0.050830 -0.517902
v -0.881855 0.080000 -0.589234
v -0.914618 0.040644 -0.611126
v -0.890334 0.078659 -0.594900
v -0.898236 0.074727 -0.600180
v -0.905021 0.068473 -0.604714
v -0.910228 0.060322 -0.608193
v -0.913501 0.050830 -0.610380
v -0.819853 0.080000 -0.672834
v -0.850313 0.040644 -0.697831
v -0.827737 0.078659 -0.679303
v -0.835083 0.074727 -0.685332
v -0.841391 0.068473 -0.690509
v -0.846232 0.060322 -0.694482
v -0.849275 0.050830 -0.696979
v -0.749956 0.080000 -0.749953
v -0.777819 0.040644 -0.777816
v -0.757168 0.078659 -0.757165
v -0.763888 0.074727 -0.763885
v -0.769658 0.068473 -0.769655
v -0.774086 0.060322 -0.774083
v -0.776870 0.050830 -0.776866
v -0.672837 0.080000 -0.819850
v -0.697834 0.040644 -0.850310
v -0.679307 0.078659 -0.827734
v -0.685336 0.074727 -0.835080
v -0.690513 0.068473 -0.841389
v -0.694485 0.060322 -0.846229
v -0.696983 0.050830 -0.849272
v -0.589238 0.080000 -0.881852
v -0.611130 0.040644 -0.914615
v -0.594904 0.078659 -0.890332
v -0.600184 0.074727 -0.898234
v -0.604718 0.068473 -0.905019
v -0.608197 0.060322 -0.910226
v -0.610384 0.050830 -0.913499
v -0.499964 0.080000 -0.935361
v -0.518539 0.040644 -0.970112
v -0.504772 0.078659 -0.944355
v -0.509252 0.074727 -0.952737
v -0.513099 0.068473 -0.959934
v -0.516050 0.060322 -0.965456
v -0.517906 0.050830 -0.968928
v -0.405875 0.080000 -0.979862
v -0.420955 0.040644 -1.016266
v -0.409778 0.078659 -0.989284
v -0.413415 0.074727 -0.998064
v -0.416538 0.068473 -1.005604
v -0.418934 0.060322 -1.011389
v -0.420441 0.050830 -1.015026
v -0.307878 0.080000 -1.014926
v -0.319316 0.040644 -1.052633
v -0.310838 0.078659 -1.024686
v -0.313597 0.074727 -1.033780
v -0.315966 0.068473 -1.041589
v -0.317784 0.060322 -1.047582
v -0.318927 0.050830 -1.051348
v -0.206915 0.080000 -1.040217
v -0.214603 0.040644 -1.078863
v -0.208905 0.078659 -1.050219
v -0.210759 0.074727 -1.059540
v -0.212351 0.068473 -1.067544
v -0.213573 0.060322 -1.073685
v -0.214341 0.050830 -1.077546
v -0.103960 0.080000 -1.055489
v -0.107823 0.040644 -1.094703
v -0.104960 0.078659 -1.065638
v -0.105891 0.074727 -1.075096
v -0.106691 0.068473 -1.083217
v -0.107305 0.060322 -1.089449
v -0.107691 0.050830 -1.093367
v 0.000000 -0.080000 -1.082130
v 0.000000 -0.062151 -1.100000
v 0.107819 -0.062151 -1.094703
v 0.106068 -0.080000 -1.076919
v 0.214599 -0.062151 -1.078864
v 0.211113 -0.080000 -1.061337
v 0.319313 -0.062151 -1.052634
v 0.314126 -0.080000 -1.035534
v 0.420952 -0.062151 -1.016267
v 0.414113 -0.080000 -0.999758
v 0.518536 -0.062151 -0.970113
v 0.510113 -0.080000 -0.954353
v 0.611127 -0.062151 -0.914617
v 0.601199 -0.080000 -0.899758
v 0.697833 -0.062151 -0.850312
v 0.686496 -0.080000 -0.836498
v 0.777817 -0.062151 -0.777818
v 0.765181 -0.080000 -0.765182
v 0.850312 -0.062151 -0.697833
v 0.836498 -0.080000 -0.686496
v 0.914617 -0.062151 -0.611127
v 0.899758 -0.080000 -0.601199
v 0.970113 -0.062151 -0.518536
v 0.954353 -0.080000 -0.510113
v 1.016267 -0.062151 -0.420952
v 0.999758 -0.080000 -0.414113
v 1.052634 -0.062151 -0.319313
v 1.035534 -0.080000 -0.314125
v 1.078864 -0.062151 -0.214599
v 1.061337 -0.080000 -0.211112
v 1.094703 -0.062151 -0.107819
v 1.076919 -0.080000 -0.106068
v 1.100000 -0.062151 0.000000
v 1.082130 -0.080000 0.000000
v 1.094703 -0.062151 0.107819
v 1.076919 -0.080000 0.106068
v 1.078864 -0.062151 0.214600
v 1.061337 -0.080000 0.211113
v 1.052634 -0.062151 0.319313
v 1.035534 -0.080000 0.314126
v 1.016267 -0.062151 0.420952
v 0.999758 -0.080000 0.414113
v 0.970113 -0.062151 0.518537
v 0.954353 -0.080000 0.510113
v 0.914616 -0.062151 0.611128
v 0.899758 -0.080000 0.601199
v 0.850311 -0.062151 0.697833
v 0.836497 -0.080000 0.686497
v 0.777817 -0.062151 0.777818
v 0.765181 -0.080000 0.765182
v 0.697832 -0.062151 0.850312
v 0.686496 -0.080000 0.836498
v 0.611127 -0.062151 0.914617
v 0.601199 -0.080000 0.899759
v 0.518536 -0.062151 0.970114
v 0.510112 -0.080000 0.954354
v 0.420951 -0.062151 1.016268
v 0.414113 -0.080000 0.999758
v 0.319312 -0.062151 1.052635
v 0.314125 -0.080000 1.035534
v 0.214599 -0.062151 1.078864
v 0.211112 -0.080000 1.061337
v 0.107818 -0.062151 1.094703
v 0.106067 -0.080000 1.076919
v -0.000001 -0.062151 1.100000
v -0.000001 -0.080000 1.082130
v -0.107820 -0.062151 1.094703
v -0.106069 -0.080000 1.076919
v -0.214600 -0.062151 1.078864
v -0.211113 -0.080000 1.061337
v -0.319314 -0.062151 1.052634
v -0.314126 -0.080000 1.035534
v -0.420953 -0.062151 1.016267
v -0.414114 -0.080000 0.999757
v -0.518537 -0.062151 0.970113
v -0.510114 -0.080000 0.954353
v -0.611128 -0.062151 0.914616
v -0.601200 -0.080000 0.899758
v -0.697834 -0.062151 0.850311
v -0.686497 -0.080000 0.836497
v -0.777818 -0.062151 0.777817
v -0.765182 -0.080000 0.765181
v -0.850312 -0.062151 0.697832
v -0.836499 -0.080000 0.686495
v -0.914617 -0.062151 0.611127
v -0.899759 -0.080000 0.601198
v -0.970114 -0.062151 0.518536
v -0.954354 -0.080000 0.510112
v -1.016268 -0.062151 0.420951
v -0.999758 -0.080000 0.414113
v -1.052634 -0.062151 0.319313
v -1.035534 -0.080000 0.314126
v -1.078864 -0.062151 0.214599
v -1.061337 -0.080000 0.211113
v -1.094703 -0.062151 0.107819
v -1.076919 -0.080000 0.106069
v -1.100000 -0.062151 0.000001
v -1.082130 -0.080000 0.000000
v -1.094703 -0.062151 -0.107818
v -1.076919 -0.080000 -0.106068
v -1.078864 -0.062151 -0.214598
v -1.061337 -0.080000 -0.211112
v -1.052635 -0.062151 -0.319312
v -1.035534 -0.080000 -0.314124
v -1.016268 -0.062151 -0.420951
v -0.999758 -0.080000 -0.414112
v -0.970114 -0.062151 -0.518535
v -0.954354 -0.080000 -0.510111
v -0.914618 -0.062151 -0.611126
v -0.899759 -0.080000 -0.601198
v -0.850313 -0.062151 -0.697831
v -0.836499 -0.080000 -0.686494
v -0.777819 -0.062151 -0.777816
v -0.765183 -0.080000 -0.765180
v -0.697834 -0.062151 -0.850310
v -0.686498 -0.080000 -0.836496
v -0.611130 -0.062151 -0.914615
v -0.601202 -0.080000 -0.899757
v -0.518539 -0.062151 -0.970112
v -0.510115 -0.080000 -0.954352
v -0.420955 -0.062151 -1.016266
v -0.414116 -0.080000 -0.999757
v -0.319316 -0.062151 -1.052633
v -0.314129 -0.080000 -1.035533
v -0.214603 -0.062151 -1.078863
v -0.211116 -0.080000 -1.061337
v -0.107823 -0.062151 -1.094703
v -0.106072 -0.080000 -1.076919
vt 0.968750 0.877012
vt 0.953125 0.555777
vt 0.968750 0.555777
vt 0.288774 0.444929
vt 0.272681 0.480289
vt 0.269481 0.447791
vt 0.307694 0.440190
vt 0.295144 0.476956
vt 0.326058 0.433619
vt 0.317173 0.471439
vt 0.343689 0.425281
vt 0.338554 0.463788
vt 0.360418 0.415253
vt 0.359082 0.454079
vt 0.376084 0.403634
vt 0.378560 0.442404
vt 0.390536 0.390536
vt 0.396800 0.428877
vt 0.428877 0.396800
vt 0.413626 0.413627
vt 0.403635 0.376085
vt 0.442404 0.378561
vt 0.415253 0.360419
vt 0.454079 0.359083
vt 0.425280 0.343689
vt 0.463788 0.338554
vt 0.440191 0.307694
vt 0.433619 0.326058
vt 0.444929 0.288774
vt 0.471439 0.317173
vt 0.480289 0.272681
vt 0.476956 0.295144
vt 0.448748 0.250000
vt 0.447791 0.269481
vt 0.447791 0.230519
vt 0.481403 0.250000
vt 0.444930 0.211226
vt 0.480289 0.227318
vt 0.471439 0.182827
vt 0.476957 0.204856
vt 0.440190 0.192306
vt 0.463788 0.161446
vt 0.425280 0.156310
vt 0.433619 0.173942
vt 0.415253 0.139581
vt 0.454079 0.140917
vt 0.428877 0.103199
vt 0.442404 0.121439
vt 0.390536 0.109463
vt 0.403635 0.123915
vt 0.396800 0.071123
vt 0.413626 0.086373
vt 0.360418 0.084747
vt 0.376084 0.096365
vt 0.359082 0.045921
vt 0.378560 0.057595
vt 0.343689 0.074720
vt 0.338554 0.036212
vt 0.307693 0.059810
vt 0.326058 0.066380
vt 0.295144 0.023043
vt 0.317173 0.028561
vt 0.288774 0.055070
vt 0.272681 0.019711
vt 0.250000 0.051252
vt 0.269481 0.052209
vt 0.230519 0.052209
vt 0.250000 0.018597
vt 0.211226 0.055071
vt 0.227318 0.019712
vt 0.182827 0.028561
vt 0.204855 0.023044
vt 0.173942 0.066381
vt 0.192306 0.059810
vt 0.156310 0.074719
vt 0.161446 0.036212
vt 0.121439 0.057596
vt 0.140917 0.045921
vt 0.123915 0.096366
vt 0.139581 0.084747
vt 0.109464 0.109464
vt 0.103199 0.071123
vt 0.071123 0.103200
vt 0.086373 0.086374
vt 0.084746 0.139582
vt 0.096365 0.123916
vt 0.074720 0.156311
vt 0.057595 0.121440
vt 0.066381 0.173942
vt 0.045921 0.140918
vt 0.059810 0.192306
vt 0.036212 0.161446
vt 0.055071 0.211226
vt 0.028561 0.182827
vt 0.019712 0.227319
vt 0.023043 0.204856
vt 0.051252 0.250000
vt 0.052209 0.230520
vt 0.052209 0.269480
vt 0.018597 0.250000
vt 0.055071 0.288774
vt 0.019711 0.272681
vt 0.028561 0.317172
vt 0.023043 0.295144
vt 0.066381 0.326057
vt 0.059810 0.307693
vt 0.074719 0.343689
vt 0.036212 0.338554
vt 0.084747 0.360418
vt 0.045921 0.359082
vt 0.096365 0.376084
vt 0.057595 0.378560
vt 0.109463 0.390536
vt 0.071123 0.396800
vt 0.123915 0.403634
vt 0.086373 0.413626
vt 0.139581 0.415253
vt 0.103199 0.428876
vt 0.156310 0.425280
vt 0.121439 0.442404
vt 0.161445 0.463788
vt 0.140917 0.454079
vt 0.192306 0.440190
vt 0.173941 0.433619
vt 0.204855 0.476956
vt 0.182827 0.471438
vt 0.230519 0.447791
vt 0.211225 0.444929
vt 0.250000 0.448748
vt 0.227318 0.480288
vt 0.984375 0.877012
vt 0.984375 0.555777
vt 1.000000 0.877012
vt 1.000000 0.555777
vt 0.937500 0.877012
vt 0.921875 0.555777
vt 0.937500 0.555777
vt 0.921875 0.877012
vt 0.906250 0.555777
vt 0.906250 0.877012
vt 0.890625 0.555777
vt 0.890625 0.877012
vt 0.875000 0.555777
vt 0.875000 0.877012
vt 0.859375 0.555777
vt 0.859375 0.877012
vt 0.843750 0.555777
vt 0.843750 0.877012
vt 0.828125 0.555777
vt 0.828125 0.877012
vt 0.812500 0.555777
vt 0.812500 0.877012
vt 0.796875 0.555777
vt 0.796875 0.877012
vt 0.781250 0.555777
vt 0.781250 0.877012
vt 0.765625 0.555777
vt 0.765625 0.877012
vt 0.750000 0.555777
vt 0.750000 0.877012
vt 0.734375 0.555777
vt 0.734375 0.877012
vt 0.718750 0.555777
vt 0.718750 0.877012
vt 0.703125 0.555777
vt 0.703125 0.877012
vt 0.687500 0.555777
vt 0.687500 0.877012
vt 0.671875 0.555777
vt 0.671875 0.877012
vt 0.656250 0.555777
vt 0.656250 0.877012
vt 0.640625 0.555777
vt 0.640625 0.877012
vt 0.625000 0.555777
vt 0.625000 0.877012
vt 0.609375 0.555777
vt 0.609375 0.877012
vt 0.593750 0.555777
vt 0.593750 0.877012
vt 0.578125 0.555777
vt 0.578125 0.877012
vt 0.562500 0.555777
vt 0.562500 0.877012
vt 0.546875 0.555777
vt 0.546875 0.877012
vt 0.531250 0.555777
vt 0.531250 0.877012
vt 0.515625 0.555777
vt 0.515625 0.877012
vt 0.500000 0.555777
vt 0.500000 0.877012
vt 0.484375 0.555777
vt 0.484375 0.877012
vt 0.468750 0.555777
vt 0.468750 0.877012
vt 0.453125 0.555777
vt 0.453125 0.877012
vt 0.437500 0.555777
vt 0.437500 0.877012
vt 0.421875 0.555777
vt 0.421875 0.877012
vt 0.406250 0.555777
vt 0.406250 0.877012
vt 0.390625 0.555777
vt 0.390625 0.877012
vt 0.375000 0.555777
vt 0.375000 0.877012
vt 0.359375 0.555777
vt 0.359375 0.877012
vt 0.343750 0.555777
vt 0.343750 0.877012
vt 0.328125 0.555777
vt 0.328125 0.877012
vt 0.312500 0.555777
vt 0.312500 0.877012
vt 0.296875 0.555777
vt 0.296875 0.877012
vt 0.281250 0.555777
vt 0.281250 0.877012
vt 0.265625 0.555777
vt 0.265625 0.877012
vt 0.250000 0.555777
vt 0.250000 0.877012
vt 0.234375 0.555777
vt 0.234375 0.877012
vt 0.218750 0.555777
vt 0.218750 0.877012
vt 0.203125 0.555777
vt 0.203125 0.877012
vt 0.187500 0.555777
vt 0.187500 0.877012
vt 0.171875 0.555777
vt 0.171875 0.877012
vt 0.156250 0.555777
vt 0.156250 0.877012
vt 0.140625 0.555777
vt 0.140625 0.877012
vt 0.125000 0.555777
vt 0.125000 0.877012
vt 0.109375 0.555777
vt 0.109375 0.877012
vt 0.093750 0.555777
vt 0.093750 0.877012
vt 0.078125 0.555777
vt 0.078125 0.877012
vt 0.062500 0.555777
vt 0.062500 0.877012
vt 0.046875 0.555777
vt 0.046875 0.877012
vt 0.031250 0.555777
vt 0.031250 0.877012
vt 0.015625 0.555777
vt 0.953125 0.877012
vt 0.984384 0.908843
vt 0.999962 0.938506
vt 0.984412 0.938506
vt 0.999918 1.000000
vt 0.984457 1.000000
vt 0.273401 0.488850
vt 0.250000 0.485701
vt 0.273103 0.484566
vt 0.250000 0.483628
vt 0.272900 0.482503
vt 0.250000 0.481403
vt 0.968760 0.908843
vt 0.984338 0.938506
vt 0.968787 0.938506
vt 0.968832 1.000000
vt 0.273646 0.488826
vt 0.295983 0.481172
vt 0.296699 0.485407
vt 0.295579 0.479139
vt 0.953135 0.908843
vt 0.968713 0.938506
vt 0.953163 0.938506
vt 0.953207 1.000000
vt 0.296942 0.485358
vt 0.318421 0.475552
vt 0.319548 0.479696
vt 0.317819 0.473568
vt 0.937510 0.908843
vt 0.937538 0.938506
vt 0.953043 1.000000
vt 0.937582 1.000000
vt 0.319785 0.479624
vt 0.340199 0.467760
vt 0.341728 0.471773
vt 0.339406 0.465844
vt 0.921885 0.908843
vt 0.921913 0.938506
vt 0.921957 1.000000
vt 0.341956 0.471678
vt 0.361109 0.457870
vt 0.363024 0.461714
vt 0.360131 0.456042
vt 0.906260 0.908843
vt 0.921837 0.938506
vt 0.906287 0.938506
vt 0.906332 1.000000
vt 0.383231 0.449616
vt 0.380949 0.445979
vt 0.379797 0.444255
vt 0.890635 0.908843
vt 0.906212 0.938506
vt 0.890663 0.938506
vt 0.890707 1.000000
vt 0.383436 0.449479
vt 0.399527 0.432200
vt 0.402155 0.435596
vt 0.398212 0.430597
vt 0.875009 0.908843
vt 0.875037 0.938506
vt 0.890588 0.938506
vt 0.875082 1.000000
vt 0.419614 0.419789
vt 0.416666 0.416666
vt 0.415200 0.415200
vt 0.859384 0.908843
vt 0.859412 0.938506
vt 0.874918 1.000000
vt 0.859457 1.000000
vt 0.435440 0.402346
vt 0.432200 0.399527
vt 0.430597 0.398212
vt 0.843760 0.908843
vt 0.843787 0.938506
vt 0.859337 0.938506
vt 0.843832 1.000000
vt 0.435596 0.402155
vt 0.445979 0.380949
vt 0.449479 0.383436
vt 0.444254 0.379797
vt 0.828135 0.908843
vt 0.843740 0.908843
vt 0.828162 0.938506
vt 0.843713 0.938506
vt 0.828207 1.000000
vt 0.449616 0.383231
vt 0.457870 0.361109
vt 0.461598 0.363241
vt 0.456041 0.360131
vt 0.812510 0.908843
vt 0.812538 0.938506
vt 0.828043 1.000000
vt 0.812582 1.000000
vt 0.461714 0.363024
vt 0.467760 0.340199
vt 0.471678 0.341956
vt 0.465844 0.339406
vt 0.796885 0.908843
vt 0.796912 0.938506
vt 0.812418 1.000000
vt 0.796957 1.000000
vt 0.471773 0.341728
vt 0.475552 0.318420
vt 0.479624 0.319785
vt 0.473568 0.317819
vt 0.781260 0.908843
vt 0.781288 0.938506
vt 0.796838 0.938506
vt 0.781332 1.000000
vt 0.479696 0.319548
vt 0.481172 0.295983
vt 0.485358 0.296942
vt 0.479139 0.295579
vt 0.765635 0.908843
vt 0.781212 0.938506
vt 0.765663 0.938506
vt 0.781168 1.000000
vt 0.765707 1.000000
vt 0.485407 0.296699
vt 0.484566 0.273103
vt 0.488826 0.273646
vt 0.482503 0.272900
vt 0.750009 0.908843
vt 0.750037 0.938506
vt 0.765587 0.938506
vt 0.750082 1.000000
vt 0.488850 0.273401
vt 0.485701 0.250000
vt 0.489994 0.250123
vt 0.483628 0.250000
vt 0.734385 0.908843
vt 0.734412 0.938506
vt 0.749918 1.000000
vt 0.734457 1.000000
vt 0.488850 0.226599
vt 0.484566 0.226897
vt 0.482503 0.227100
vt 0.718760 0.908843
vt 0.718787 0.938506
vt 0.734338 0.938506
vt 0.718832 1.000000
vt 0.488826 0.226354
vt 0.481173 0.204017
vt 0.485407 0.203300
vt 0.479139 0.204421
vt 0.703135 0.908843
vt 0.718713 0.938506
vt 0.703163 0.938506
vt 0.703207 1.000000
vt 0.485358 0.203058
vt 0.475552 0.181579
vt 0.479696 0.180451
vt 0.473568 0.182181
vt 0.687509 0.908843
vt 0.687537 0.938506
vt 0.703043 1.000000
vt 0.687582 1.000000
vt 0.471773 0.158272
vt 0.467760 0.159801
vt 0.465844 0.160594
vt 0.671885 0.908843
vt 0.671913 0.938506
vt 0.671957 1.000000
vt 0.471678 0.158044
vt 0.457870 0.138891
vt 0.461714 0.136976
vt 0.456041 0.139868
vt 0.656260 0.908843
vt 0.671838 0.938506
vt 0.656287 0.938506
vt 0.656332 1.000000
vt 0.461598 0.136759
vt 0.445979 0.119051
vt 0.449616 0.116769
vt 0.444254 0.120203
vt 0.656240 0.908843
vt 0.640635 0.908843
vt 0.656212 0.938506
vt 0.640662 0.938506
vt 0.640707 1.000000
vt 0.435596 0.097845
vt 0.432200 0.100473
vt 0.430597 0.101788
vt 0.625010 0.908843
vt 0.640588 0.938506
vt 0.625037 0.938506
vt 0.625082 1.000000
vt 0.419789 0.080386
vt 0.416666 0.083334
vt 0.415200 0.084800
vt 0.609384 0.908843
vt 0.609412 0.938506
vt 0.624918 1.000000
vt 0.609457 1.000000
vt 0.402346 0.064560
vt 0.399527 0.067800
vt 0.398212 0.069403
vt 0.593760 0.908843
vt 0.593788 0.938506
vt 0.609293 1.000000
vt 0.593832 1.000000
vt 0.402155 0.064404
vt 0.380949 0.054021
vt 0.383436 0.050521
vt 0.379797 0.055745
vt 0.578135 0.908843
vt 0.593712 0.938506
vt 0.578163 0.938506
vt 0.578207 1.000000
vt 0.383231 0.050384
vt 0.361109 0.042130
vt 0.363241 0.038402
vt 0.360131 0.043959
vt 0.562510 0.908843
vt 0.578087 0.938506
vt 0.562537 0.938506
vt 0.562582 1.000000
vt 0.363023 0.038286
vt 0.340199 0.032240
vt 0.341956 0.028322
vt 0.339405 0.034156
vt 0.546885 0.908843
vt 0.546912 0.938506
vt 0.546957 1.000000
vt 0.341728 0.028227
vt 0.318420 0.024448
vt 0.319785 0.020376
vt 0.317818 0.026432
vt 0.531259 0.908843
vt 0.531287 0.938506
vt 0.546838 0.938506
vt 0.531332 1.000000
vt 0.319548 0.020304
vt 0.295983 0.018827
vt 0.296941 0.014642
vt 0.295578 0.020861
vt 0.515635 0.908843
vt 0.531240 0.908843
vt 0.515662 0.938506
vt 0.531213 0.938506
vt 0.515707 1.000000
vt 0.296699 0.014593
vt 0.273103 0.015434
vt 0.273646 0.011174
vt 0.272899 0.017497
vt 0.500010 0.908843
vt 0.500037 0.938506
vt 0.515588 0.938506
vt 0.500082 1.000000
vt 0.250123 0.010006
vt 0.250000 0.014299
vt 0.250000 0.016372
vt 0.484385 0.908843
vt 0.484413 0.938506
vt 0.499918 1.000000
vt 0.484457 1.000000
vt 0.249876 0.010006
vt 0.226897 0.015434
vt 0.226599 0.011150
vt 0.227100 0.017497
vt 0.468760 0.908843
vt 0.468788 0.938506
vt 0.484293 1.000000
vt 0.468832 1.000000
vt 0.203300 0.014593
vt 0.204017 0.018828
vt 0.204421 0.020861
vt 0.453135 0.908843
vt 0.468740 0.908843
vt 0.453162 0.938506
vt 0.468713 0.938506
vt 0.453207 1.000000
vt 0.203058 0.014642
vt 0.181579 0.024448
vt 0.180451 0.020304
vt 0.182181 0.026432
vt 0.437510 0.908843
vt 0.437537 0.938506
vt 0.453043 1.000000
vt 0.437582 1.000000
vt 0.158272 0.028227
vt 0.159801 0.032240
vt 0.160594 0.034156
vt 0.421885 0.908843
vt 0.421912 0.938506
vt 0.421957 1.000000
vt 0.158044 0.028322
vt 0.138891 0.042130
vt 0.136976 0.038286
vt 0.139868 0.043959
vt 0.406260 0.908843
vt 0.421838 0.938506
vt 0.406288 0.938506
vt 0.406332 1.000000
vt 0.116769 0.050384
vt 0.119051 0.054022
vt 0.120203 0.055746
vt 0.390635 0.908843
vt 0.406240 0.908843
vt 0.390662 0.938506
vt 0.406213 0.938506
vt 0.390707 1.000000
vt 0.116564 0.050521
vt 0.100472 0.067800
vt 0.097845 0.064404
vt 0.101788 0.069403
vt 0.375010 0.908843
vt 0.390588 0.938506
vt 0.375037 0.938506
vt 0.375082 1.000000
vt 0.080386 0.080212
vt 0.083334 0.083334
vt 0.084800 0.084800
vt 0.359385 0.908843
vt 0.359412 0.938506
vt 0.359457 1.000000
vt 0.080211 0.080386
vt 0.067800 0.100473
vt 0.064560 0.097654
vt 0.069403 0.101788
vt 0.343760 0.908843
vt 0.343787 0.938506
vt 0.359338 0.938506
vt 0.343832 1.000000
vt 0.064404 0.097845
vt 0.054021 0.119051
vt 0.050521 0.116564
vt 0.055745 0.120203
vt 0.328135 0.908843
vt 0.343740 0.908843
vt 0.328162 0.938506
vt 0.343668 1.000000
vt 0.328207 1.000000
vt 0.038402 0.136759
vt 0.042130 0.138891
vt 0.043959 0.139869
vt 0.312510 0.908843
vt 0.312538 0.938506
vt 0.328043 1.000000
vt 0.312582 1.000000
vt 0.028322 0.158044
vt 0.032240 0.159801
vt 0.034156 0.160594
vt 0.296885 0.908843
vt 0.296912 0.938506
vt 0.296957 1.000000
vt 0.028227 0.158272
vt 0.024448 0.181580
vt 0.020376 0.180215
vt 0.026432 0.182181
vt 0.281260 0.908843
vt 0.281288 0.938506
vt 0.296793 1.000000
vt 0.281332 1.000000
vt 0.020304 0.180452
vt 0.018828 0.204017
vt 0.014642 0.203058
vt 0.020861 0.204421
vt 0.265635 0.908843
vt 0.281240 0.908843
vt 0.265663 0.938506
vt 0.281168 1.000000
vt 0.265707 1.000000
vt 0.011174 0.226354
vt 0.015434 0.226897
vt 0.017497 0.227100
vt 0.250010 0.908843
vt 0.250037 0.938506
vt 0.265588 0.938506
vt 0.250082 1.000000
vt 0.011150 0.226599
vt 0.014299 0.250000
vt 0.010006 0.249876
vt 0.016372 0.250000
vt 0.234385 0.908843
vt 0.234412 0.938506
vt 0.234457 1.000000
vt 0.010006 0.250123
vt 0.015434 0.273103
vt 0.011150 0.273401
vt 0.017497 0.272899
vt 0.218760 0.908843
vt 0.234337 0.938506
vt 0.218787 0.938506
vt 0.218832 1.000000
vt 0.011174 0.273646
vt 0.018827 0.295983
vt 0.014593 0.296699
vt 0.020861 0.295578
vt 0.203135 0.908843
vt 0.218712 0.938506
vt 0.203162 0.938506
vt 0.203207 1.000000
vt 0.020304 0.319548
vt 0.024448 0.318420
vt 0.026432 0.317818
vt 0.187510 0.908843
vt 0.203088 0.938506
vt 0.187537 0.938506
vt 0.187582 1.000000
vt 0.028227 0.341727
vt 0.032240 0.340199
vt 0.034156 0.339405
vt 0.171885 0.908843
vt 0.171912 0.938506
vt 0.171957 1.000000
vt 0.038286 0.363023
vt 0.042130 0.361109
vt 0.043958 0.360131
vt 0.156260 0.908843
vt 0.171837 0.938506
vt 0.156287 0.938506
vt 0.156332 1.000000
vt 0.038402 0.363241
vt 0.054021 0.380948
vt 0.050384 0.383231
vt 0.055745 0.379796
vt 0.156240 0.908843
vt 0.140635 0.908843
vt 0.156212 0.938506
vt 0.140662 0.938506
vt 0.140707 1.000000
vt 0.050521 0.383436
vt 0.067800 0.399527
vt 0.064404 0.402155
vt 0.069403 0.398212
vt 0.125010 0.908843
vt 0.125037 0.938506
vt 0.140588 0.938506
vt 0.125082 1.000000
vt 0.064560 0.402346
vt 0.083334 0.416666
vt 0.080211 0.419614
vt 0.084800 0.415200
vt 0.109385 0.908843
vt 0.109413 0.938506
vt 0.124918 1.000000
vt 0.109457 1.000000
vt 0.080386 0.419788
vt 0.100472 0.432199
vt 0.097654 0.435439
vt 0.101788 0.430596
vt 0.093760 0.908843
vt 0.109338 0.938506
vt 0.093787 0.938506
vt 0.093832 1.000000
vt 0.097844 0.435596
vt 0.119051 0.445978
vt 0.116563 0.449479
vt 0.120203 0.444254
vt 0.078135 0.908843
vt 0.093713 0.938506
vt 0.078162 0.938506
vt 0.078207 1.000000
vt 0.136758 0.461597
vt 0.138891 0.457870
vt 0.139868 0.456041
vt 0.062510 0.908843
vt 0.062537 0.938506
vt 0.078088 0.938506
vt 0.062582 1.000000
vt 0.158044 0.471678
vt 0.159800 0.467759
vt 0.160594 0.465844
vt 0.046885 0.908843
vt 0.046912 0.938506
vt 0.046957 1.000000
vt 0.180215 0.479624
vt 0.181579 0.475552
vt 0.182181 0.473568
vt 0.031260 0.908843
vt 0.046838 0.938506
vt 0.031287 0.938506
vt 0.031332 1.000000
vt 0.180451 0.479695
vt 0.204016 0.481172
vt 0.203058 0.485358
vt 0.204421 0.479139
vt 0.015625 0.877012
vt 0.031240 0.908843
vt 0.015635 0.908843
vt 0.015662 0.938506
vt 0.031213 0.938506
vt 0.015707 1.000000
vt 0.226353 0.488826
vt 0.226896 0.484566
vt 0.227100 0.482503
vt 0.000010 0.908843
vt 0.000000 0.877012
vt 0.000037 0.938506
vt 0.015588 0.938506
vt 0.000082 1.000000
vt 0.226598 0.488850
vt 0.249877 0.489994
vt 0.000000 0.555777
vt 0.999873 0.500000
vt 0.895959 0.500000
vt 0.941478 0.500000
vt 0.953091 0.500000
vt 0.927657 0.500000
vt 0.913202 0.500000
vt 0.898452 0.500000
vt 0.883531 0.500000
vt 0.853387 0.500000
vt 0.868498 0.500000
vt 0.838216 0.500000
vt 0.823000 0.500000
vt 0.807748 0.500000
vt 0.792467 0.500000
vt 0.761835 0.500000
vt 0.777161 0.500000
vt 0.746492 0.500000
vt 0.731134 0.500000
vt 0.700382 0.500000
vt 0.715764 0.500000
vt 0.684992 0.500000
vt 0.669593 0.500000
vt 0.654187 0.500000
vt 0.638775 0.500000
vt 0.607936 0.500000
vt 0.623358 0.500000
vt 0.592510 0.500000
vt 0.561650 0.500000
vt 0.577081 0.500000
vt 0.546216 0.500000
vt 0.515344 0.500000
vt 0.530780 0.500000
vt 0.499906 0.500000
vt 0.484469 0.500000
vt 0.453595 0.500000
vt 0.469031 0.500000
vt 0.438159 0.500000
vt 0.422725 0.500000
vt 0.407294 0.500000
vt 0.376439 0.500000
vt 0.391865 0.500000
vt 0.361017 0.500000
vt 0.345600 0.500000
vt 0.314782 0.500000
vt 0.330188 0.500000
vt 0.299383 0.500000
vt 0.268612 0.500000
vt 0.283993 0.500000
vt 0.253241 0.500000
vt 0.237883 0.500000
vt 0.207214 0.500000
vt 0.222540 0.500000
vt 0.191908 0.500000
vt 0.161375 0.500000
vt 0.176627 0.500000
vt 0.146159 0.500000
vt 0.130988 0.500000
vt 0.115877 0.500000
vt 0.100844 0.500000
vt 0.085923 0.500000
vt 0.071173 0.500000
vt 0.056718 0.500000
vt 0.031284 0.500000
vt 0.042897 0.500000
vt 0.088421 0.500000
vt 0.999990 0.908843
vt 0.250123 0.489994
vt 0.984293 1.000000
vt 0.968740 0.908843
vt 0.968668 1.000000
vt 0.953087 0.938506
vt 0.937418 1.000000
vt 0.921793 1.000000
vt 0.363241 0.461598
vt 0.906240 0.908843
vt 0.906168 1.000000
vt 0.890543 1.000000
vt 0.402346 0.435440
vt 0.419789 0.419614
vt 0.859293 1.000000
vt 0.843668 1.000000
vt 0.828088 0.938506
vt 0.796793 1.000000
vt 0.781240 0.908843
vt 0.765543 1.000000
vt 0.489994 0.249877
vt 0.734293 1.000000
vt 0.718740 0.908843
vt 0.718668 1.000000
vt 0.703088 0.938506
vt 0.479624 0.180215
vt 0.687418 1.000000
vt 0.671793 1.000000
vt 0.656168 1.000000
vt 0.449479 0.116564
vt 0.640543 1.000000
vt 0.435439 0.097654
vt 0.419614 0.080211
vt 0.609337 0.938506
vt 0.593740 0.908843
vt 0.593668 1.000000
vt 0.578043 1.000000
vt 0.562418 1.000000
vt 0.546793 1.000000
vt 0.531168 1.000000
vt 0.515543 1.000000
vt 0.273401 0.011150
vt 0.484337 0.938506
vt 0.226353 0.011174
vt 0.468668 1.000000
vt 0.453088 0.938506
vt 0.180215 0.020376
vt 0.437418 1.000000
vt 0.421793 1.000000
vt 0.136759 0.038403
vt 0.406168 1.000000
vt 0.390543 1.000000
vt 0.097654 0.064561
vt 0.374918 1.000000
vt 0.359293 1.000000
vt 0.343712 0.938506
vt 0.050384 0.116769
vt 0.328087 0.938506
vt 0.038286 0.136977
vt 0.312418 1.000000
vt 0.296838 0.938506
vt 0.281213 0.938506
vt 0.014593 0.203301
vt 0.265543 1.000000
vt 0.249918 1.000000
vt 0.234293 1.000000
vt 0.218740 0.908843
vt 0.218668 1.000000
vt 0.014642 0.296941
vt 0.203043 1.000000
vt 0.020376 0.319784
vt 0.187418 1.000000
vt 0.028322 0.341955
vt 0.171793 1.000000
vt 0.156168 1.000000
vt 0.140543 1.000000
vt 0.109293 1.000000
vt 0.093740 0.908843
vt 0.093668 1.000000
vt 0.116769 0.449616
vt 0.078043 1.000000
vt 0.136976 0.461714
vt 0.062418 1.000000
vt 0.158272 0.471772
vt 0.046793 1.000000
vt 0.031168 1.000000
vt 0.203300 0.485406
vt 0.015543 1.000000
vt 0.984502 0.500000
vn 0.2430 0.0000 -0.9700
vn 0.0000 1.0000 -0.0000
vn 0.1467 0.0000 -0.9892
vn 0.0491 0.0000 -0.9988
vn 0.4276 0.0000 -0.9040
vn 0.5141 0.0000 -0.8577
vn 0.5957 0.0000 -0.8032
vn 0.6716 0.0000 -0.7410
vn 0.7410 0.0000 -0.6716
vn 0.8032 0.0000 -0.5957
vn 0.8577 0.0000 -0.5141
vn 0.9040 0.0000 -0.4276
vn 0.9415 0.0000 -0.3369
vn 0.9700 0.0000 -0.2430
vn 0.9892 0.0000 -0.1467
vn 0.9988 0.0000 -0.0491
vn 0.9988 0.0000 0.0491
vn 0.9892 0.0000 0.1467
vn 0.9700 0.0000 0.2430
vn 0.9415 0.0000 0.3369
vn 0.9040 0.0000 0.4276
vn 0.8577 0.0000 0.5141
vn 0.8032 0.0000 0.5957
vn 0.7410 0.0000 0.6716
vn 0.6716 0.0000 0.7410
vn 0.5957 0.0000 0.8032
vn 0.5141 0.0000 0.8577
vn 0.4276 0.0000 0.9040
vn 0.3369 0.0000 0.9415
vn 0.2430 0.0000 0.9700
vn 0.1467 0.0000 0.9892
vn 0.0491 0.0000 0.9988
vn -0.0491 0.0000 0.9988
vn -0.1467 0.0000 0.9892
vn -0.2430 0.0000 0.9700
vn -0.3369 0.0000 0.9415
vn -0.4276 0.0000 0.9040
vn -0.5141 0.0000 0.8577
vn -0.5957 0.0000 0.8032
vn -0.6716 0.0000 0.7410
vn -0.7410 0.0000 0.6716
vn -0.8032 0.0000 0.5957
vn -0.8577 0.0000 0.5141
vn -0.9040 0.0000 0.4276
vn -0.9415 0.0000 0.3369
vn -0.9700 0.0000 0.2430
vn -0.9892 0.0000 0.1467
vn -0.9988 0.0000 0.0491
vn -0.9988 0.0000 -0.0491
vn -0.9892 0.0000 -0.1467
vn -0.9700 0.0000 -0.2430
vn -0.9415 0.0000 -0.3369
vn -0.9040 0.0000 -0.4276
vn -0.8577 0.0000 -0.5141
vn -0.8032 0.0000 -0.5957
vn -0.7410 0.0000 -0.6716
vn -0.6716 0.0000 -0.7410
vn -0.5957 0.0000 -0.8032
vn -0.5141 0.0000 -0.8577
vn -0.4276 0.0000 -0.9040
vn -0.3369 0.0000 -0.9415
vn -0.2430 0.0000 -0.9700
vn -0.1467 0.0000 -0.9892
vn 0.3369 0.0000 -0.9415
vn 0.0486 0.1305 -0.9902
vn 0.0453 0.3827 -0.9228
vn 0.0389 0.6088 -0.7924
vn 0.0299 0.7934 -0.6080
vn 0.0188 0.9239 -0.3822
vn 0.0064 0.9914 -0.1304
vn 0.1455 0.1305 -0.9807
vn 0.1356 0.3827 -0.9139
vn 0.1164 0.6088 -0.7848
vn 0.0893 0.7934 -0.6022
vn 0.0562 0.9239 -0.3785
vn 0.0192 0.9914 -0.1291
vn 0.2409 0.1305 -0.9617
vn 0.2245 0.3827 -0.8962
vn 0.1928 0.6088 -0.7696
vn 0.1479 0.7934 -0.5905
vn 0.0930 0.9239 -0.3712
vn 0.0317 0.9914 -0.1266
vn 0.3340 0.1305 -0.9335
vn 0.3112 0.3827 -0.8699
vn 0.2673 0.6088 -0.7470
vn 0.2051 0.7934 -0.5732
vn 0.1289 0.9239 -0.3603
vn 0.0440 0.9914 -0.1229
vn 0.4239 0.1305 -0.8963
vn 0.3950 0.3827 -0.8352
vn 0.3392 0.6088 -0.7172
vn 0.2603 0.7934 -0.5503
vn 0.1636 0.9239 -0.3459
vn 0.0558 0.9914 -0.1180
vn 0.5097 0.1305 -0.8504
vn 0.4750 0.3827 -0.7924
vn 0.4079 0.6088 -0.6805
vn 0.3130 0.7934 -0.5222
vn 0.1967 0.9239 -0.3282
vn 0.0671 0.9914 -0.1120
vn 0.5906 0.1305 -0.7963
vn 0.5504 0.3827 -0.7421
vn 0.4726 0.6088 -0.6372
vn 0.3626 0.7934 -0.4890
vn 0.2280 0.9239 -0.3074
vn 0.0778 0.9914 -0.1048
vn 0.6658 0.1305 -0.7346
vn 0.6204 0.3827 -0.6845
vn 0.5328 0.6088 -0.5878
vn 0.4088 0.7934 -0.4511
vn 0.2570 0.9239 -0.2835
vn 0.0877 0.9914 -0.0967
vn 0.7346 0.1305 -0.6658
vn 0.6846 0.3827 -0.6204
vn 0.5878 0.6088 -0.5328
vn 0.4511 0.7934 -0.4088
vn 0.2836 0.9239 -0.2570
vn 0.0967 0.9914 -0.0877
vn 0.7963 0.1305 -0.5906
vn 0.7421 0.3827 -0.5504
vn 0.6372 0.6088 -0.4726
vn 0.4890 0.7934 -0.3626
vn 0.3074 0.9239 -0.2280
vn 0.1048 0.9914 -0.0778
vn 0.8504 0.1305 -0.5097
vn 0.7924 0.3827 -0.4750
vn 0.6805 0.6088 -0.4079
vn 0.5222 0.7934 -0.3130
vn 0.3282 0.9239 -0.1967
vn 0.1120 0.9914 -0.0671
vn 0.8963 0.1305 -0.4239
vn 0.8352 0.3827 -0.3950
vn 0.7172 0.6088 -0.3392
vn 0.5503 0.7934 -0.2603
vn 0.3459 0.9239 -0.1636
vn 0.1180 0.9914 -0.0558
vn 0.9335 0.1306 -0.3340
vn 0.8699 0.3827 -0.3112
vn 0.7470 0.6088 -0.2673
vn 0.5732 0.7934 -0.2051
vn 0.3603 0.9239 -0.1289
vn 0.1229 0.9914 -0.0440
vn 0.9617 0.1305 -0.2409
vn 0.8962 0.3827 -0.2245
vn 0.7696 0.6088 -0.1928
vn 0.5905 0.7934 -0.1479
vn 0.3712 0.9239 -0.0930
vn 0.1266 0.9914 -0.0317
vn 0.9807 0.1305 -0.1455
vn 0.9139 0.3827 -0.1356
vn 0.7848 0.6088 -0.1164
vn 0.6022 0.7934 -0.0893
vn 0.3785 0.9239 -0.0562
vn 0.1291 0.9914 -0.0192
vn 0.9903 0.1305 -0.0486
vn 0.9228 0.3827 -0.0453
vn 0.7924 0.6088 -0.0389
vn 0.6080 0.7933 -0.0299
vn 0.3822 0.9239 -0.0188
vn 0.1304 0.9914 -0.0064
vn 0.9903 0.1305 0.0486
vn 0.9228 0.3827 0.0453
vn 0.7924 0.6088 0.0389
vn 0.6080 0.7934 0.0299
vn 0.3822 0.9239 0.0188
vn 0.1304 0.9914 0.0064
vn 0.9807 0.1305 0.1455
vn 0.9139 0.3827 0.1356
vn 0.7848 0.6088 0.1164
vn 0.6022 0.7934 0.0893
vn 0.3785 0.9239 0.0562
vn 0.1291 0.9914 0.0192
vn 0.9617 0.1305 0.2409
vn 0.8962 0.3827 0.2245
vn 0.7696 0.6088 0.1928
vn 0.5905 0.7933 0.1479
vn 0.3712 0.9239 0.0930
vn 0.1266 0.9914 0.0317
vn 0.9335 0.1305 0.3340
vn 0.8699 0.3827 0.3112
vn 0.7470 0.6088 0.2673
vn 0.5732 0.7934 0.2051
vn 0.3603 0.9239 0.1289
vn 0.1229 0.9914 0.0440
vn 0.8963 0.1305 0.4239
vn 0.8352 0.3827 0.3950
vn 0.7172 0.6088 0.3392
vn 0.5503 0.7934 0.2603
vn 0.3459 0.9239 0.1636
vn 0.1180 0.9914 0.0558
vn 0.8504 0.1305 0.5097
vn 0.7924 0.3827 0.4750
vn 0.6805 0.6088 0.4079
vn 0.5222 0.7934 0.3130
vn 0.3282 0.9239 0.1967
vn 0.1120 0.9914 0.0671
vn 0.7963 0.1305 0.5906
vn 0.7421 0.3827 0.5504
vn 0.6372 0.6088 0.4726
vn 0.4890 0.7934 0.3626
vn 0.3074 0.9239 0.2280
vn 0.1048 0.9914 0.0778
vn 0.7346 0.1305 0.6658
vn 0.6845 0.3827 0.6204
vn 0.5878 0.6088 0.5328
vn 0.4511 0.7934 0.4088
vn 0.2835 0.9239 0.2570
vn 0.0967 0.9914 0.0877
vn 0.6658 0.1305 0.7346
vn 0.6204 0.3827 0.6846
vn 0.5328 0.6088 0.5878
vn 0.4088 0.7934 0.4511
vn 0.2570 0.9239 0.2835
vn 0.0877 0.9914 0.0967
vn 0.5906 0.1305 0.7963
vn 0.5504 0.3827 0.7421
vn 0.4726 0.6088 0.6372
vn 0.3626 0.7934 0.4890
vn 0.2280 0.9239 0.3074
vn 0.0778 0.9914 0.1048
vn 0.5097 0.1305 0.8504
vn 0.4750 0.3827 0.7924
vn 0.4079 0.6088 0.6805
vn 0.3130 0.7934 0.5222
vn 0.1967 0.9239 0.3282
vn 0.0671 0.9914 0.1120
vn 0.4239 0.1305 0.8963
vn 0.3950 0.3827 0.8352
vn 0.3392 0.6088 0.7172
vn 0.2603 0.7934 0.5503
vn 0.1636 0.9239 0.3459
vn 0.0558 0.9914 0.1180
vn 0.3340 0.1305 0.9335
vn 0.3112 0.3827 0.8699
vn 0.2673 0.6088 0.7470
vn 0.2051 0.7934 0.5732
vn 0.1289 0.9239 0.3603
vn 0.0440 0.9914 0.1229
vn 0.2409 0.1305 0.9617
vn 0.2245 0.3827 0.8962
vn 0.1928 0.6088 0.7696
vn 0.1479 0.7934 0.5905
vn 0.0930 0.9239 0.3712
vn 0.0317 0.9914 0.1266
vn 0.1455 0.1305 0.9807
vn 0.1356 0.3827 0.9139
vn 0.1164 0.6088 0.7848
vn 0.0893 0.7934 0.6022
vn 0.0562 0.9239 0.3785
vn 0.0192 0.9914 0.1291
vn 0.0486 0.1305 0.9903
vn 0.0453 0.3827 0.9228
vn 0.0389 0.6088 0.7924
vn 0.0299 0.7934 0.6080
vn 0.0188 0.9239 0.3822
vn 0.0064 0.9914 0.1304
vn -0.0486 0.1305 0.9902
vn -0.0453 0.3827 0.9228
vn -0.0389 0.6088 0.7924
vn -0.0299 0.7934 0.6080
vn -0.0188 0.9239 0.3822
vn -0.0064 0.9914 0.1304
vn -0.1455 0.1305 0.9807
vn -0.1356 0.3827 0.9139
vn -0.1164 0.6088 0.7848
vn -0.0893 0.7934 0.6022
vn -0.0562 0.9239 0.3785
vn -0.0192 0.9914 0.1291
vn -0.2409 0.1305 0.9617
vn -0.2245 0.3827 0.8962
vn -0.1928 0.6088 0.7696
vn -0.1479 0.7934 0.5905
vn -0.0930 0.9239 0.3712
vn -0.0317 0.9914 0.1266
vn -0.3340 0.1305 0.9335
vn -0.3112 0.3827 0.8699
vn -0.2673 0.6088 0.7470
vn -0.2051 0.7934 0.5732
vn -0.1289 0.9239 0.3603
vn -0.0440 0.9914 0.1229
vn -0.4239 0.1305 0.8963
vn -0.3950 0.3827 0.8352
vn -0.3392 0.6088 0.7172
vn -0.2603 0.7934 0.5503
vn -0.1636 0.9239 0.3459
vn -0.0558 0.9914 0.1180
vn -0.5097 0.1305 0.8504
vn -0.4750 0.3827 0.7924
vn -0.4079 0.6088 0.6805
vn -0.3130 0.7934 0.5222
vn -0.1967 0.9239 0.3282
vn -0.0671 0.9914 0.1120
vn -0.5906 0.1305 0.7963
vn -0.5504 0.3827 0.7421
vn -0.4726 0.6088 0.6372
vn -0.3626 0.7933 0.4890
vn -0.2280 0.9239 0.3074
vn -0.0778 0.9914 0.1048
vn -0.6658 0.1305 0.7346
vn -0.6204 0.3827 0.6845
vn -0.5328 0.6088 0.5878
vn -0.4088 0.7934 0.4511
vn -0.2570 0.9239 0.2835
vn -0.0877 0.9914 0.0967
vn -0.7346 0.1305 0.6658
vn -0.6846 0.3827 0.6204
vn -0.5878 0.6088 0.5328
vn -0.4511 0.7934 0.4088
vn -0.2835 0.9239 0.2570
vn -0.0967 0.9914 0.0877
vn -0.7963 0.1305 0.5906
vn -0.7421 0.3827 0.5504
vn -0.6372 0.6088 0.4726
vn -0.4890 0.7934 0.3626
vn -0.3074 0.9239 0.2280
vn -0.1048 0.9914 0.0778
vn -0.8504 0.1305 0.5097
vn -0.7924 0.3827 0.4750
vn -0.6805 0.6088 0.4079
vn -0.5222 0.7934 0.3130
vn -0.3282 0.9239 0.1967
vn -0.1120 0.9914 0.0671
vn -0.8963 0.1305 0.4239
vn -0.8352 0.3827 0.3950
vn -0.7172 0.6088 0.3392
vn -0.5503 0.7934 0.2603
vn -0.3459 0.9239 0.1636
vn -0.1180 0.9914 0.0558
vn -0.9335 0.1305 0.3340
vn -0.8699 0.3827 0.3112
vn -0.7470 0.6088 0.2673
vn -0.5732 0.7934 0.2051
vn -0.3603 0.9239 0.1289
vn -0.1229 0.9914 0.0440
vn -0.9617 0.1305 0.2409
vn -0.8962 0.3827 0.2245
vn -0.7696 0.6088 0.1928
vn -0.5905 0.7934 0.1479
vn -0.3712 0.9239 0.0930
vn -0.1266 0.9914 0.0317
vn -0.9807 0.1305 0.1455
vn -0.9139 0.3827 0.1356
vn -0.7848 0.6088 0.1164
vn -0.6022 0.7934 0.0893
vn -0.3785 0.9239 0.0561
vn -0.1291 0.9914 0.0192
vn -0.9902 0.1305 0.0486
vn -0.9228 0.3827 0.0453
vn -0.7924 0.6087 0.0389
vn -0.6080 0.7934 0.0299
vn -0.3822 0.9239 0.0188
vn -0.1304 0.9914 0.0064
vn -0.9903 0.1305 -0.0486
vn -0.9228 0.3827 -0.0453
vn -0.7924 0.6088 -0.0389
vn -0.6080 0.7934 -0.0299
vn -0.3822 0.9239 -0.0188
vn -0.1304 0.9914 -0.0064
vn -0.9807 0.1305 -0.1455
vn -0.9139 0.3827 -0.1356
vn -0.7848 0.6088 -0.1164
vn -0.6022 0.7934 -0.0893
vn -0.3785 0.9239 -0.0562
vn -0.1291 0.9914 -0.0192
vn -0.9617 0.1305 -0.2409
vn -0.8962 0.3827 -0.2245
vn -0.7696 0.6088 -0.1928
vn -0.5905 0.7934 -0.1479
vn -0.3712 0.9239 -0.0930
vn -0.1266 0.9914 -0.0317
vn -0.9335 0.1305 -0.3340
vn -0.8699 0.3827 -0.3112
vn -0.7470 0.6088 -0.2673
vn -0.5732 0.7934 -0.2051
vn -0.3603 0.9239 -0.1289
vn -0.1229 0.9914 -0.0440
vn -0.8963 0.1305 -0.4239
vn -0.8352 0.3827 -0.3950
vn -0.7172 0.6088 -0.3392
vn -0.5503 0.7934 -0.2603
vn -0.3459 0.9239 -0.1636
vn -0.1180 0.9914 -0.0558
vn -0.8504 0.1305 -0.5097
vn -0.7924 0.3827 -0.4750
vn -0.6805 0.6088 -0.4079
vn -0.5221 0.7934 -0.3130
vn -0.3282 0.9239 -0.1967
vn -0.1120 0.9914 -0.0671
vn -0.7963 0.1305 -0.5906
vn -0.7421 0.3827 -0.5504
vn -0.6372 0.6088 -0.4726
vn -0.4890 0.7934 -0.3626
vn -0.3074 0.9239 -0.2280
vn -0.1048 0.9914 -0.0778
vn -0.7346 0.1305 -0.6658
vn -0.6846 0.3827 -0.6204
vn -0.5878 0.6088 -0.5328
vn -0.4511 0.7933 -0.4088
vn -0.2835 0.9239 -0.2570
vn -0.0967 0.9914 -0.0877
vn -0.6658 0.1305 -0.7346
vn -0.6204 0.3827 -0.6846
vn -0.5328 0.6088 -0.5878
vn -0.4088 0.7934 -0.4511
vn -0.2570 0.9239 -0.2835
vn -0.0877 0.9914 -0.0967
vn -0.5906 0.1305 -0.7963
vn -0.5504 0.3827 -0.7421
vn -0.4726 0.6088 -0.6372
vn -0.3626 0.7934 -0.4890
vn -0.2280 0.9239 -0.3074
vn -0.0778 0.9914 -0.1048
vn -0.5097 0.1305 -0.8504
vn -0.4750 0.3827 -0.7924
vn -0.4079 0.6088 -0.6805
vn -0.3130 0.7934 -0.5222
vn -0.1967 0.9239 -0.3282
vn -0.0671 0.9914 -0.1120
vn -0.4239 0.1305 -0.8963
vn -0.3950 0.3827 -0.8352
vn -0.3392 0.6088 -0.7172
vn -0.2603 0.7934 -0.5503
vn -0.1636 0.9239 -0.3459
vn -0.0558 0.9914 -0.1180
vn -0.3340 0.1305 -0.9335
vn -0.3112 0.3827 -0.8699
vn -0.2673 0.6088 -0.7470
vn -0.2051 0.7934 -0.5732
vn -0.1289 0.9239 -0.3603
vn -0.0440 0.9914 -0.1229
vn -0.2409 0.1305 -0.9617
vn -0.2245 0.3827 -0.8962
vn -0.1928 0.6088 -0.7696
vn -0.1479 0.7934 -0.5905
vn -0.0930 0.9239 -0.3712
vn -0.0317 0.9914 -0.1266
vn -0.1455 0.1305 -0.9807
vn -0.1356 0.3827 -0.9139
vn -0.1164 0.6088 -0.7848
vn -0.0893 0.7934 -0.6022
vn -0.0562 0.9239 -0.3785
vn -0.0192 0.9914 -0.1291
vn -0.0487 0.1305 -0.9903
vn -0.0453 0.3827 -0.9228
vn -0.0389 0.6088 -0.7924
vn -0.0299 0.7934 -0.6080
vn -0.0188 0.9239 -0.3822
vn -0.0064 0.9914 -0.1304
vn -0.0491 0.0000 -0.9988
vn 0.0347 -0.7071 -0.7063
vn 0.1038 -0.7071 -0.6995
vn 0.1718 -0.7071 -0.6859
vn 0.2382 -0.7071 -0.6658
vn 0.3023 -0.7071 -0.6392
vn 0.3635 -0.7071 -0.6065
vn 0.4212 -0.7071 -0.5680
vn 0.4749 -0.7071 -0.5239
vn 0.5239 -0.7071 -0.4749
vn 0.5680 -0.7071 -0.4212
vn 0.6065 -0.7071 -0.3635
vn 0.6392 -0.7071 -0.3023
vn 0.6658 -0.7071 -0.2382
vn 0.6859 -0.7071 -0.1718
vn 0.6995 -0.7071 -0.1038
vn 0.7063 -0.7071 -0.0347
vn 0.7063 -0.7071 0.0347
vn 0.6995 -0.7071 0.1038
vn 0.6859 -0.7071 0.1718
vn 0.6658 -0.7071 0.2382
vn 0.6392 -0.7071 0.3023
vn 0.6065 -0.7071 0.3635
vn 0.5680 -0.7071 0.4212
vn 0.5239 -0.7071 0.4749
vn 0.4749 -0.7071 0.5239
vn 0.4212 -0.7071 0.5680
vn 0.3635 -0.7071 0.6065
vn 0.3023 -0.7071 0.6392
vn 0.2382 -0.7071 0.6658
vn 0.1718 -0.7071 0.6859
vn 0.1038 -0.7071 0.6995
vn 0.0347 -0.7071 0.7063
vn -0.0347 -0.7071 0.7063
vn -0.1038 -0.7071 0.6995
vn -0.1718 -0.7071 0.6859
vn -0.2382 -0.7071 0.6658
vn -0.3023 -0.7071 0.6392
vn -0.3635 -0.7071 0.6065
vn -0.4212 -0.7071 0.5680
vn -0.4749 -0.7071 0.5239
vn -0.5239 -0.7071 0.4749
vn -0.5680 -0.7071 0.4212
vn -0.6065 -0.7071 0.3635
vn -0.6392 -0.7071 0.3023
vn -0.6658 -0.7071 0.2382
vn -0.6859 -0.7071 0.1718
vn -0.6995 -0.7071 0.1038
vn -0.7063 -0.7071 0.0347
vn -0.7062 -0.7071 -0.0347
vn -0.6995 -0.7071 -0.1038
vn -0.6859 -0.7071 -0.1718
vn -0.6658 -0.7071 -0.2382
vn -0.6392 -0.7071 -0.3023
vn -0.6065 -0.7071 -0.3635
vn -0.5680 -0.7071 -0.4212
vn -0.5239 -0.7071 -0.4749
vn -0.4749 -0.7071 -0.5239
vn -0.4212 -0.7071 -0.5680
vn -0.3635 -0.7071 -0.6065
vn -0.3023 -0.7071 -0.6392
vn -0.2382 -0.7071 -0.6658
vn -0.1718 -0.7071 -0.6859
vn -0.1038 -0.7071 -0.6995
vn -0.0347 -0.7071 -0.7063
vn 0.0486 0.1305 -0.9903
vn 0.0561 0.9239 -0.3785
vn 0.2570 0.9239 -0.2836
vn 0.6845 0.3827 -0.6204
vn 0.4511 0.7933 -0.4088
vn 0.5221 0.7934 -0.3130
vn 0.9335 0.1305 -0.3340
vn 0.9617 0.1306 -0.2409
vn 0.9902 0.1306 -0.0487
vn 0.6080 0.7934 -0.0299
vn 0.9902 0.1305 0.0487
vn 0.6080 0.7933 0.0299
vn 0.3785 0.9239 0.0561
vn 0.5905 0.7934 0.1479
vn 0.5221 0.7934 0.3130
vn 0.6846 0.3827 0.6204
vn 0.6204 0.3827 0.6845
vn 0.4088 0.7933 0.4511
vn 0.2570 0.9239 0.2836
vn -0.0486 0.1305 0.9903
vn -0.3130 0.7934 0.5221
vn -0.3626 0.7934 0.4890
vn -0.2836 0.9239 0.2570
vn -0.3785 0.9239 0.0562
vn -0.9903 0.1305 0.0486
vn -0.7924 0.6088 0.0389
vn -0.9902 0.1305 -0.0486
vn -0.7696 0.6087 -0.1928
vn -0.5732 0.7933 -0.2051
vn -0.5222 0.7934 -0.3130
vn -0.4511 0.7934 -0.4088
vn -0.6204 0.3827 -0.6845
vn -0.0486 0.1305 -0.9903
vn -0.7063 -0.7071 -0.0347
usemtl Casing
s off
f 80/1/1 519/2/1 517/3/1
f 3/4/2 65/5/2 2/6/2
f 4/7/2 79/8/2 3/4/2
f 5/9/2 86/10/2 4/7/2
f 6/11/2 93/12/2 5/9/2
f 7/13/2 100/14/2 6/11/2
f 8/15/2 107/16/2 7/13/2
f 9/17/2 114/18/2 8/15/2
f 9/17/2 128/19/2 121/20/2
f 10/21/2 135/22/2 128/19/2
f 11/23/2 142/24/2 135/22/2
f 12/25/2 149/26/2 142/24/2
f 14/27/2 149/26/2 13/28/2
f 15/29/2 156/30/2 14/27/2
f 15/29/2 170/31/2 163/32/2
f 17/33/2 170/31/2 16/34/2
f 18/35/2 177/36/2 17/33/2
f 19/37/2 184/38/2 18/35/2
f 19/37/2 198/39/2 191/40/2
f 20/41/2 205/42/2 198/39/2
f 22/43/2 205/42/2 21/44/2
f 23/45/2 212/46/2 22/43/2
f 23/45/2 226/47/2 219/48/2
f 25/49/2 226/47/2 24/50/2
f 25/49/2 240/51/2 233/52/2
f 27/53/2 240/51/2 26/54/2
f 27/53/2 254/55/2 247/56/2
f 28/57/2 261/58/2 254/55/2
f 30/59/2 261/58/2 29/60/2
f 30/59/2 275/61/2 268/62/2
f 31/63/2 282/64/2 275/61/2
f 33/65/2 282/64/2 32/66/2
f 34/67/2 289/68/2 33/65/2
f 35/69/2 296/70/2 34/67/2
f 35/69/2 310/71/2 303/72/2
f 37/73/2 310/71/2 36/74/2
f 38/75/2 317/76/2 37/73/2
f 38/75/2 331/77/2 324/78/2
f 40/79/2 331/77/2 39/80/2
f 41/81/2 338/82/2 40/79/2
f 41/81/2 352/83/2 345/84/2
f 43/85/2 352/83/2 42/86/2
f 44/87/2 359/88/2 43/85/2
f 45/89/2 366/90/2 44/87/2
f 46/91/2 373/92/2 45/89/2
f 47/93/2 380/94/2 46/91/2
f 47/93/2 394/95/2 387/96/2
f 49/97/2 394/95/2 48/98/2
f 50/99/2 401/100/2 49/97/2
f 51/101/2 408/102/2 50/99/2
f 51/101/2 422/103/2 415/104/2
f 53/105/2 422/103/2 52/106/2
f 54/107/2 429/108/2 53/105/2
f 55/109/2 436/110/2 54/107/2
f 56/111/2 443/112/2 55/109/2
f 57/113/2 450/114/2 56/111/2
f 58/115/2 457/116/2 57/113/2
f 59/117/2 464/118/2 58/115/2
f 60/119/2 471/120/2 59/117/2
f 60/119/2 485/121/2 478/122/2
f 62/123/2 485/121/2 61/124/2
f 62/123/2 499/125/2 492/126/2
f 64/127/2 499/125/2 63/128/2
f 1/129/2 506/130/2 64/127/2
f 66/131/3 517/3/3 515/132/3
f 72/133/4 515/132/4 514/134/4
f 94/135/5 523/136/5 521/137/5
f 101/138/6 525/139/6 523/136/6
f 108/140/7 527/141/7 525/139/7
f 115/142/8 529/143/8 527/141/8
f 122/144/9 531/145/9 529/143/9
f 129/146/10 533/147/10 531/145/10
f 136/148/11 535/149/11 533/147/11
f 143/150/12 537/151/12 535/149/12
f 150/152/13 539/153/13 537/151/13
f 157/154/14 541/155/14 539/153/14
f 164/156/15 543/157/15 541/155/15
f 171/158/16 545/159/16 543/157/16
f 178/160/17 547/161/17 545/159/17
f 185/162/18 549/163/18 547/161/18
f 192/164/19 551/165/19 549/163/19
f 199/166/20 553/167/20 551/165/20
f 206/168/21 555/169/21 553/167/21
f 213/170/22 557/171/22 555/169/22
f 220/172/23 559/173/23 557/171/23
f 227/174/24 561/175/24 559/173/24
f 234/176/25 563/177/25 561/175/25
f 241/178/26 565/179/26 563/177/26
f 248/180/27 567/181/27 565/179/27
f 255/182/28 569/183/28 567/181/28
f 262/184/29 571/185/29 569/183/29
f 269/186/30 573/187/30 571/185/30
f 276/188/31 575/189/31 573/187/31
f 283/190/32 577/191/32 575/189/32
f 290/192/33 579/193/33 577/191/33
f 297/194/34 581/195/34 579/193/34
f 304/196/35 583/197/35 581/195/35
f 311/198/36 585/199/36 583/197/36
f 318/200/37 587/201/37 585/199/37
f 325/202/38 589/203/38 587/201/38
f 332/204/39 591/205/39 589/203/39
f 339/206/40 593/207/40 591/205/40
f 346/208/41 595/209/41 593/207/41
f 353/210/42 597/211/42 595/209/42
f 360/212/43 599/213/43 597/211/43
f 367/214/44 601/215/44 599/213/44
f 374/216/45 603/217/45 601/215/45
f 381/218/46 605/219/46 603/217/46
f 388/220/47 607/221/47 605/219/47
f 395/222/48 609/223/48 607/221/48
f 402/224/49 611/225/49 609/223/49
f 409/226/50 613/227/50 611/225/50
f 416/228/51 615/229/51 613/227/51
f 423/230/52 617/231/52 615/229/52
f 430/232/53 619/233/53 617/231/53
f 437/234/54 621/235/54 619/233/54
f 444/236/55 623/237/55 621/235/55
f 451/238/56 625/239/56 623/237/56
f 458/240/57 627/241/57 625/239/57
f 465/242/58 629/243/58 627/241/58
f 472/244/59 631/245/59 629/243/59
f 479/246/60 633/247/60 631/245/60
f 486/248/61 635/249/61 633/247/61
f 493/250/62 637/251/62 635/249/62
f 500/252/63 639/253/63 637/251/63
f 87/254/64 521/137/64 519/2/64
f 72/133/65 71/255/65 66/131/65
f 71/255/66 75/256/66 70/257/66
f 70/257/67 76/258/67 69/259/67
f 69/260/68 77/261/68 68/262/68
f 68/262/69 78/263/69 67/264/69
f 67/264/70 73/265/70 65/5/70
f 66/131/71 85/266/71 80/1/71
f 85/266/72 70/267/72 84/268/72
f 70/267/73 83/269/73 84/268/73
f 69/270/74 82/271/74 83/272/74
f 68/262/75 81/273/75 82/271/75
f 67/264/76 79/8/76 81/273/76
f 80/1/77 92/274/77 87/254/77
f 92/274/78 84/275/78 91/276/78
f 84/275/79 90/277/79 91/276/79
f 83/278/80 89/279/80 90/280/80
f 82/271/81 88/281/81 89/279/81
f 88/281/82 79/8/82 86/10/82
f 87/254/83 99/282/83 94/135/83
f 92/274/84 98/283/84 99/282/84
f 98/283/85 90/284/85 97/285/85
f 90/286/86 96/287/86 97/288/86
f 89/279/87 95/289/87 96/287/87
f 88/281/88 93/12/88 95/289/88
f 94/135/89 106/290/89 101/138/89
f 99/282/90 105/291/90 106/290/90
f 98/283/91 104/292/91 105/291/91
f 97/293/92 103/294/92 104/295/92
f 96/287/93 102/296/93 103/294/93
f 95/289/94 100/14/94 102/296/94
f 101/138/95 113/297/95 108/140/95
f 113/297/96 105/298/96 112/299/96
f 105/298/97 111/300/97 112/299/97
f 111/301/98 103/294/98 110/302/98
f 110/302/99 102/296/99 109/303/99
f 102/296/100 107/16/100 109/303/100
f 108/140/101 120/304/101 115/142/101
f 120/304/102 112/305/102 119/306/102
f 112/305/103 118/307/103 119/306/103
f 111/308/104 117/309/104 118/310/104
f 110/302/105 116/311/105 117/309/105
f 116/311/106 107/16/106 114/18/106
f 115/142/107 127/312/107 122/144/107
f 120/304/108 126/313/108 127/312/108
f 119/314/109 125/315/109 126/313/109
f 125/316/110 117/309/110 124/317/110
f 117/309/111 123/318/111 124/317/111
f 123/318/112 114/18/112 121/20/112
f 129/146/113 127/312/113 134/319/113
f 127/312/114 133/320/114 134/319/114
f 133/320/115 125/321/115 132/322/115
f 132/323/116 124/317/116 131/324/116
f 124/317/117 130/325/117 131/324/117
f 123/318/118 128/19/118 130/325/118
f 136/148/119 134/319/119 141/326/119
f 134/319/120 140/327/120 141/326/120
f 133/328/121 139/329/121 140/327/121
f 132/330/122 138/331/122 139/332/122
f 131/324/123 137/333/123 138/331/123
f 137/333/124 128/19/124 135/22/124
f 136/148/125 148/334/125 143/150/125
f 141/335/126 147/336/126 148/334/126
f 140/337/127 146/338/127 147/336/127
f 139/339/128 145/340/128 146/341/128
f 138/331/129 144/342/129 145/340/129
f 144/342/130 135/22/130 142/24/130
f 143/150/131 155/343/131 150/152/131
f 148/334/132 154/344/132 155/343/132
f 154/344/133 146/345/133 153/346/133
f 146/347/134 152/348/134 153/349/134
f 152/348/135 144/342/135 151/350/135
f 151/350/136 142/24/136 149/26/136
f 157/154/137 155/343/137 162/351/137
f 155/343/138 161/352/138 162/351/138
f 161/352/139 153/353/139 160/354/139
f 153/355/140 159/356/140 160/357/140
f 159/356/141 151/350/141 158/358/141
f 151/350/142 156/30/142 158/358/142
f 157/154/143 169/359/143 164/156/143
f 162/351/144 168/360/144 169/359/144
f 161/361/145 167/362/145 168/360/145
f 160/363/146 166/364/146 167/365/146
f 159/356/147 165/366/147 166/364/147
f 165/366/148 156/30/148 163/32/148
f 164/156/149 176/367/149 171/158/149
f 176/367/150 168/368/150 175/369/150
f 175/369/151 167/370/151 174/371/151
f 167/372/152 173/373/152 174/374/152
f 166/364/153 172/375/153 173/373/153
f 165/366/154 170/31/154 172/375/154
f 171/158/155 183/376/155 178/160/155
f 176/367/156 182/377/156 183/376/156
f 175/378/157 181/379/157 182/377/157
f 174/380/158 180/381/158 181/382/158
f 173/373/159 179/383/159 180/381/159
f 172/375/160 177/36/160 179/383/160
f 178/160/161 190/384/161 185/162/161
f 190/384/162 182/377/162 189/385/162
f 189/385/163 181/386/163 188/387/163
f 188/388/164 180/381/164 187/389/164
f 187/389/165 179/383/165 186/390/165
f 179/383/166 184/38/166 186/390/166
f 185/162/167 197/391/167 192/164/167
f 190/384/168 196/392/168 197/391/168
f 189/393/169 195/394/169 196/392/169
f 188/395/170 194/396/170 195/397/170
f 187/389/171 193/398/171 194/396/171
f 186/390/172 191/40/172 193/398/172
f 192/164/173 204/399/173 199/166/173
f 204/399/174 196/400/174 203/401/174
f 196/400/175 202/402/175 203/401/175
f 195/403/176 201/404/176 202/405/176
f 194/396/177 200/406/177 201/404/177
f 193/398/178 198/39/178 200/406/178
f 199/166/179 211/407/179 206/168/179
f 204/399/180 210/408/180 211/407/180
f 210/408/181 202/409/181 209/410/181
f 209/411/182 201/404/182 208/412/182
f 208/412/183 200/406/183 207/413/183
f 200/406/184 205/42/184 207/413/184
f 213/170/185 211/407/185 218/414/185
f 211/407/186 217/415/186 218/414/186
f 210/408/187 216/416/187 217/415/187
f 209/417/188 215/418/188 216/419/188
f 208/412/189 214/420/189 215/418/189
f 207/413/190 212/46/190 214/420/190
f 213/170/191 225/421/191 220/172/191
f 225/421/192 217/422/192 224/423/192
f 217/422/193 223/424/193 224/423/193
f 216/425/194 222/426/194 223/427/194
f 215/418/195 221/428/195 222/426/195
f 214/420/196 219/48/196 221/428/196
f 227/174/197 225/429/197 232/430/197
f 232/430/198 224/431/198 231/432/198
f 224/431/199 230/433/199 231/432/199
f 230/434/200 222/426/200 229/435/200
f 222/426/201 228/436/201 229/435/201
f 221/428/202 226/47/202 228/436/202
f 227/174/203 239/437/203 234/176/203
f 239/437/204 231/438/204 238/439/204
f 231/438/205 237/440/205 238/439/205
f 237/441/206 229/435/206 236/442/206
f 229/435/207 235/443/207 236/442/207
f 228/436/208 233/52/208 235/443/208
f 234/176/209 246/444/209 241/178/209
f 239/437/210 245/445/210 246/444/210
f 245/445/211 237/446/211 244/447/211
f 244/448/212 236/442/212 243/449/212
f 243/449/213 235/443/213 242/450/213
f 235/443/214 240/51/214 242/450/214
f 248/180/215 246/444/215 253/451/215
f 246/444/216 252/452/216 253/451/216
f 252/452/217 244/453/217 251/454/217
f 244/455/218 250/456/218 251/457/218
f 243/449/219 249/458/219 250/456/219
f 242/450/220 247/56/220 249/458/220
f 248/180/221 260/459/221 255/182/221
f 260/459/222 252/460/222 259/461/222
f 252/460/223 258/462/223 259/461/223
f 251/463/224 257/464/224 258/465/224
f 250/456/225 256/466/225 257/464/225
f 249/458/226 254/55/226 256/466/226
f 262/184/227 260/459/227 267/467/227
f 267/467/228 259/468/228 266/469/228
f 259/468/229 265/470/229 266/469/229
f 258/471/230 264/472/230 265/473/230
f 264/472/231 256/466/231 263/474/231
f 256/466/232 261/58/232 263/474/232
f 262/184/233 274/475/233 269/186/233
f 274/475/234 266/469/234 273/476/234
f 266/469/235 272/477/235 273/476/235
f 265/478/236 271/479/236 272/480/236
f 271/479/237 263/474/237 270/481/237
f 263/474/238 268/62/238 270/481/238
f 276/188/239 274/475/239 281/482/239
f 274/475/240 280/483/240 281/482/240
f 273/484/241 279/485/241 280/483/241
f 272/486/242 278/487/242 279/488/242
f 278/487/243 270/481/243 277/489/243
f 270/481/244 275/61/244 277/489/244
f 276/188/245 288/490/245 283/190/245
f 281/491/246 287/492/246 288/490/246
f 280/493/247 286/494/247 287/492/247
f 279/495/248 285/496/248 286/497/248
f 285/496/249 277/489/249 284/498/249
f 277/489/250 282/64/250 284/498/250
f 283/190/251 295/499/251 290/192/251
f 288/490/252 294/500/252 295/499/252
f 287/501/253 293/502/253 294/500/253
f 293/503/254 285/496/254 292/504/254
f 292/504/255 284/498/255 291/505/255
f 284/498/256 289/68/256 291/505/256
f 290/192/257 302/506/257 297/194/257
f 302/506/258 294/500/258 301/507/258
f 301/507/259 293/508/259 300/509/259
f 293/510/260 299/511/260 300/512/260
f 299/511/261 291/505/261 298/513/261
f 291/505/262 296/70/262 298/513/262
f 297/194/263 309/514/263 304/196/263
f 302/506/264 308/515/264 309/514/264
f 308/515/265 300/516/265 307/517/265
f 307/518/266 299/511/266 306/519/266
f 306/519/267 298/513/267 305/520/267
f 305/520/268 296/70/268 303/72/268
f 304/196/269 316/521/269 311/198/269
f 309/522/270 315/523/270 316/521/270
f 308/524/271 314/525/271 315/523/271
f 307/526/272 313/527/272 314/528/272
f 306/519/273 312/529/273 313/527/273
f 305/520/274 310/71/274 312/529/274
f 318/200/275 316/521/275 323/530/275
f 316/521/276 322/531/276 323/530/276
f 322/531/277 314/532/277 321/533/277
f 321/534/278 313/527/278 320/535/278
f 313/527/279 319/536/279 320/535/279
f 312/529/280 317/76/280 319/536/280
f 318/200/281 330/537/281 325/202/281
f 323/530/282 329/538/282 330/537/282
f 322/531/283 328/539/283 329/538/283
f 321/540/284 327/541/284 328/542/284
f 320/535/285 326/543/285 327/541/285
f 319/536/286 324/78/286 326/543/286
f 325/202/287 337/544/287 332/204/287
f 337/544/288 329/545/288 336/546/288
f 329/545/289 335/547/289 336/546/289
f 335/548/290 327/541/290 334/549/290
f 334/549/291 326/543/291 333/550/291
f 326/543/292 331/77/292 333/550/292
f 332/204/293 344/551/293 339/206/293
f 337/552/294 343/553/294 344/551/294
f 336/554/295 342/555/295 343/553/295
f 335/556/296 341/557/296 342/558/296
f 334/549/297 340/559/297 341/557/297
f 333/550/298 338/82/298 340/559/298
f 346/208/299 344/551/299 351/560/299
f 351/560/300 343/561/300 350/562/300
f 343/561/301 349/563/301 350/562/301
f 349/564/302 341/557/302 348/565/302
f 348/565/303 340/559/303 347/566/303
f 340/559/304 345/84/304 347/566/304
f 346/208/305 358/567/305 353/210/305
f 351/560/306 357/568/306 358/567/306
f 350/562/307 356/569/307 357/568/307
f 349/570/308 355/571/308 356/572/308
f 355/571/309 347/566/309 354/573/309
f 347/566/310 352/83/310 354/573/310
f 360/212/311 358/567/311 365/574/311
f 358/567/312 364/575/312 365/574/312
f 357/576/313 363/577/313 364/575/313
f 356/578/314 362/579/314 363/580/314
f 362/579/315 354/573/315 361/581/315
f 354/573/316 359/88/316 361/581/316
f 360/212/317 372/582/317 367/214/317
f 365/583/318 371/584/318 372/582/318
f 371/584/319 363/585/319 370/586/319
f 370/587/320 362/579/320 369/588/320
f 369/588/321 361/581/321 368/589/321
f 361/581/322 366/90/322 368/589/322
f 374/216/323 372/582/323 379/590/323
f 372/582/324 378/591/324 379/590/324
f 378/591/325 370/592/325 377/593/325
f 377/594/326 369/588/326 376/595/326
f 376/595/327 368/589/327 375/596/327
f 375/596/328 366/90/328 373/92/328
f 381/218/329 379/590/329 386/597/329
f 379/590/330 385/598/330 386/597/330
f 378/591/331 384/599/331 385/598/331
f 377/600/332 383/601/332 384/602/332
f 383/601/333 375/596/333 382/603/333
f 375/596/334 380/94/334 382/603/334
f 381/218/335 393/604/335 388/220/335
f 386/597/336 392/605/336 393/604/336
f 392/605/337 384/606/337 391/607/337
f 384/608/338 390/609/338 391/610/338
f 390/609/339 382/603/339 389/611/339
f 382/603/340 387/96/340 389/611/340
f 388/220/341 400/612/341 395/222/341
f 393/613/342 399/614/342 400/612/342
f 399/614/343 391/615/343 398/616/343
f 398/617/344 390/609/344 397/618/344
f 397/618/345 389/611/345 396/619/345
f 389/611/346 394/95/346 396/619/346
f 402/224/347 400/612/347 407/620/347
f 400/612/348 406/621/348 407/620/348
f 399/622/349 405/623/349 406/621/349
f 398/624/350 404/625/350 405/626/350
f 397/618/351 403/627/351 404/625/351
f 396/619/352 401/100/352 403/627/352
f 402/224/353 414/628/353 409/226/353
f 407/620/354 413/629/354 414/628/354
f 406/621/355 412/630/355 413/629/355
f 405/631/356 411/632/356 412/633/356
f 404/625/357 410/634/357 411/632/357
f 403/627/358 408/102/358 410/634/358
f 409/226/359 421/635/359 416/228/359
f 421/635/360 413/636/360 420/637/360
f 413/636/361 419/638/361 420/637/361
f 412/639/362 418/640/362 419/641/362
f 411/632/363 417/642/363 418/640/363
f 410/634/364 415/104/364 417/642/364
f 416/228/365 428/643/365 423/230/365
f 428/643/366 420/644/366 427/645/366
f 420/644/367 426/646/367 427/645/367
f 426/647/368 418/640/368 425/648/368
f 425/648/369 417/642/369 424/649/369
f 417/642/370 422/103/370 424/649/370
f 430/232/371 428/643/371 435/650/371
f 435/650/372 427/651/372 434/652/372
f 427/651/373 433/653/373 434/652/373
f 433/654/374 425/648/374 432/655/374
f 425/648/375 431/656/375 432/655/375
f 431/656/376 422/103/376 429/108/376
f 430/232/377 442/657/377 437/234/377
f 442/657/378 434/652/378 441/658/378
f 434/652/379 440/659/379 441/658/379
f 440/660/380 432/655/380 439/661/380
f 432/655/381 438/662/381 439/661/381
f 438/662/382 429/108/382 436/110/382
f 437/234/383 449/663/383 444/236/383
f 449/663/384 441/664/384 448/665/384
f 441/664/385 447/666/385 448/665/385
f 440/667/386 446/668/386 447/669/386
f 446/668/387 438/662/387 445/670/387
f 438/662/388 443/112/388 445/670/388
f 451/238/389 449/671/389 456/672/389
f 456/672/390 448/673/390 455/674/390
f 448/673/391 454/675/391 455/674/391
f 447/676/392 453/677/392 454/678/392
f 453/677/393 445/670/393 452/679/393
f 445/670/394 450/114/394 452/679/394
f 451/238/395 463/680/395 458/240/395
f 456/672/396 462/681/396 463/680/396
f 455/682/397 461/683/397 462/681/397
f 454/684/398 460/685/398 461/686/398
f 460/685/399 452/679/399 459/687/399
f 452/679/400 457/116/400 459/687/400
f 458/240/401 470/688/401 465/242/401
f 470/688/402 462/681/402 469/689/402
f 469/689/403 461/690/403 468/691/403
f 461/692/404 467/693/404 468/694/404
f 467/693/405 459/687/405 466/695/405
f 459/687/406 464/118/406 466/695/406
f 465/242/407 477/696/407 472/244/407
f 477/696/408 469/697/408 476/698/408
f 469/697/409 475/699/409 476/698/409
f 468/700/410 474/701/410 475/702/410
f 467/693/411 473/703/411 474/701/411
f 473/703/412 464/118/412 471/120/412
f 472/244/413 484/704/413 479/246/413
f 484/704/414 476/705/414 483/706/414
f 476/705/415 482/707/415 483/706/415
f 482/708/416 474/701/416 481/709/416
f 474/701/417 480/710/417 481/709/417
f 480/710/418 471/120/418 478/122/418
f 486/248/419 484/704/419 491/711/419
f 484/704/420 490/712/420 491/711/420
f 483/713/421 489/714/421 490/712/421
f 489/715/422 481/709/422 488/716/422
f 488/716/423 480/710/423 487/717/423
f 487/717/424 478/122/424 485/121/424
f 486/248/425 498/718/425 493/250/425
f 491/711/426 497/719/426 498/718/426
f 490/712/427 496/720/427 497/719/427
f 496/721/428 488/716/428 495/722/428
f 488/716/429 494/723/429 495/722/429
f 494/723/430 485/121/430 492/126/430
f 493/250/431 505/724/431 500/252/431
f 505/724/432 497/725/432 504/726/432
f 497/725/433 503/727/433 504/726/433
f 496/728/434 502/729/434 503/730/434
f 495/722/435 501/731/435 502/729/435
f 494/723/436 499/125/436 501/731/436
f 507/732/437 505/733/437 512/734/437
f 505/733/438 511/735/438 512/734/438
f 504/736/439 510/737/439 511/735/439
f 510/738/440 502/729/440 509/739/440
f 502/729/441 508/740/441 509/739/441
f 501/731/442 506/130/442 508/740/442
f 507/732/443 74/741/443 72/742/443
f 512/734/444 75/743/444 74/741/444
f 511/744/445 76/745/445 75/743/445
f 510/746/446 77/261/446 76/747/446
f 77/261/447 508/740/447 78/263/447
f 508/740/448 73/265/448 78/263/448
f 2/6/2 73/265/2 1/129/2
f 507/732/449 514/748/449 639/253/449
f 515/132/450 513/749/450 514/134/450
f 517/3/451 516/750/451 515/132/451
f 517/3/452 520/751/452 518/752/452
f 519/2/453 522/753/453 520/751/453
f 521/137/454 524/754/454 522/753/454
f 523/136/455 526/755/455 524/754/455
f 527/141/456 526/755/456 525/139/456
f 529/143/457 528/756/457 527/141/457
f 529/143/458 532/757/458 530/758/458
f 531/145/459 534/759/459 532/757/459
f 535/149/460 534/759/460 533/147/460
f 537/151/461 536/760/461 535/149/461
f 539/153/462 538/761/462 537/151/462
f 541/155/463 540/762/463 539/153/463
f 541/155/464 544/763/464 542/764/464
f 543/157/465 546/765/465 544/763/465
f 547/161/466 546/765/466 545/159/466
f 549/163/467 548/766/467 547/161/467
f 549/163/468 552/767/468 550/768/468
f 551/165/469 554/769/469 552/767/469
f 553/167/470 556/770/470 554/769/470
f 555/169/471 558/771/471 556/770/471
f 559/173/472 558/771/472 557/171/472
f 561/175/473 560/772/473 559/173/473
f 561/175/474 564/773/474 562/774/474
f 563/177/475 566/775/475 564/773/475
f 567/181/476 566/775/476 565/179/476
f 567/181/477 570/776/477 568/777/477
f 571/185/478 570/776/478 569/183/478
f 573/187/479 572/778/479 571/185/479
f 573/187/480 576/779/480 574/780/480
f 575/189/481 578/781/481 576/779/481
f 579/193/482 578/781/482 577/191/482
f 581/195/483 580/782/483 579/193/483
f 581/195/484 584/783/484 582/784/484
f 583/197/485 586/785/485 584/783/485
f 587/201/486 586/785/486 585/199/486
f 589/203/487 588/786/487 587/201/487
f 591/205/488 590/787/488 589/203/488
f 591/205/489 594/788/489 592/789/489
f 593/207/490 596/790/490 594/788/490
f 597/211/491 596/790/491 595/209/491
f 599/213/492 598/791/492 597/211/492
f 599/213/493 602/792/493 600/793/493
f 603/217/494 602/792/494 601/215/494
f 605/219/495 604/794/495 603/217/495
f 605/219/496 608/795/496 606/796/496
f 607/221/497 610/797/497 608/795/497
f 611/225/498 610/797/498 609/223/498
f 613/227/499 612/798/499 611/225/499
f 613/227/500 616/799/500 614/800/500
f 617/231/501 616/799/501 615/229/501
f 619/233/502 618/801/502 617/231/502
f 619/233/503 622/802/503 620/803/503
f 621/235/504 624/804/504 622/802/504
f 623/237/505 626/805/505 624/804/505
f 625/239/506 628/806/506 626/805/506
f 627/241/507 630/807/507 628/806/507
f 631/245/508 630/807/508 629/243/508
f 633/247/509 632/808/509 631/245/509
f 635/249/510 634/809/510 633/247/510
f 637/251/511 636/810/511 635/249/511
f 637/251/512 640/811/512 638/812/512
f 639/253/513 513/813/513 640/811/513
f 80/1/1 87/254/1 519/2/1
f 3/4/2 79/8/2 65/5/2
f 4/7/2 86/10/2 79/8/2
f 5/9/2 93/12/2 86/10/2
f 6/11/2 100/14/2 93/12/2
f 7/13/2 107/16/2 100/14/2
f 8/15/2 114/18/2 107/16/2
f 9/17/2 121/20/2 114/18/2
f 9/17/2 10/21/2 128/19/2
f 10/21/2 11/23/2 135/22/2
f 11/23/2 12/25/2 142/24/2
f 12/25/2 13/28/2 149/26/2
f 14/27/2 156/30/2 149/26/2
f 15/29/2 163/32/2 156/30/2
f 15/29/2 16/34/2 170/31/2
f 17/33/2 177/36/2 170/31/2
f 18/35/2 184/38/2 177/36/2
f 19/37/2 191/40/2 184/38/2
f 19/37/2 20/41/2 198/39/2
f 20/41/2 21/44/2 205/42/2
f 22/43/2 212/46/2 205/42/2
f 23/45/2 219/48/2 212/46/2
f 23/45/2 24/50/2 226/47/2
f 25/49/2 233/52/2 226/47/2
f 25/49/2 26/54/2 240/51/2
f 27/53/2 247/56/2 240/51/2
f 27/53/2 28/57/2 254/55/2
f 28/57/2 29/60/2 261/58/2
f 30/59/2 268/62/2 261/58/2
f 30/59/2 31/63/2 275/61/2
f 31/63/2 32/66/2 282/64/2
f 33/65/2 289/68/2 282/64/2
f 34/67/2 296/70/2 289/68/2
f 35/69/2 303/72/2 296/70/2
f 35/69/2 36/74/2 310/71/2
f 37/73/2 317/76/2 310/71/2
f 38/75/2 324/78/2 317/76/2
f 38/75/2 39/80/2 331/77/2
f 40/79/2 338/82/2 331/77/2
f 41/81/2 345/84/2 338/82/2
f 41/81/2 42/86/2 352/83/2
f 43/85/2 359/88/2 352/83/2
f 44/87/2 366/90/2 359/88/2
f 45/89/2 373/92/2 366/90/2
f 46/91/2 380/94/2 373/92/2
f 47/93/2 387/96/2 380/94/2
f 47/93/2 48/98/2 394/95/2
f 49/97/2 401/100/2 394/95/2
f 50/99/2 408/102/2 401/100/2
f 51/101/2 415/104/2 408/102/2
f 51/101/2 52/106/2 422/103/2
f 53/105/2 429/108/2 422/103/2
f 54/107/2 436/110/2 429/108/2
f 55/109/2 443/112/2 436/110/2
f 56/111/2 450/114/2 443/112/2
f 57/113/2 457/116/2 450/114/2
f 58/115/2 464/118/2 457/116/2
f 59/117/2 471/120/2 464/118/2
f 60/119/2 478/122/2 471/120/2
f 60/119/2 61/124/2 485/121/2
f 62/123/2 492/126/2 485/121/2
f 62/123/2 63/128/2 499/125/2
f 64/127/2 506/130/2 499/125/2
f 1/129/2 73/265/2 506/130/2
f 66/131/3 80/1/3 517/3/3
f 72/133/4 66/131/4 515/132/4
f 94/135/5 101/138/5 523/136/5
f 101/138/6 108/140/6 525/139/6
f 108/140/7 115/142/7 527/141/7
f 115/142/8 122/144/8 529/143/8
f 122/144/9 129/146/9 531/145/9
f 129/146/10 136/148/10 533/147/10
f 136/148/11 143/150/11 535/149/11
f 143/150/12 150/152/12 537/151/12
f 150/152/13 157/154/13 539/153/13
f 157/154/14 164/156/14 541/155/14
f 164/156/15 171/158/15 543/157/15
f 171/158/16 178/160/16 545/159/16
f 178/160/17 185/162/17 547/161/17
f 185/162/18 192/164/18 549/163/18
f 192/164/19 199/166/19 551/165/19
f 199/166/20 206/168/20 553/167/20
f 206/168/21 213/170/21 555/169/21
f 213/170/22 220/172/22 557/171/22
f 220/172/23 227/174/23 559/173/23
f 227/174/24 234/176/24 561/175/24
f 234/176/25 241/178/25 563/177/25
f 241/178/26 248/180/26 565/179/26
f 248/180/27 255/182/27 567/181/27
f 255/182/28 262/184/28 569/183/28
f 262/184/29 269/186/29 571/185/29
f 269/186/30 276/188/30 573/187/30
f 276/188/31 283/190/31 575/189/31
f 283/190/32 290/192/32 577/191/32
f 290/192/33 297/194/33 579/193/33
f 297/194/34 304/196/34 581/195/34
f 304/196/35 311/198/35 583/197/35
f 311/198/36 318/200/36 585/199/36
f 318/200/37 325/202/37 587/201/37
f 325/202/38 332/204/38 589/203/38
f 332/204/39 339/206/39 591/205/39
f 339/206/40 346/208/40 593/207/40
f 346/208/41 353/210/41 595/209/41
f 353/210/42 360/212/42 597/211/42
f 360/212/43 367/214/43 599/213/43
f 367/214/44 374/216/44 601/215/44
f 374/216/45 381/218/45 603/217/45
f 381/218/46 388/220/46 605/219/46
f 388/220/47 395/222/47 607/221/47
f 395/222/48 402/224/48 609/223/48
f 402/224/49 409/226/49 611/225/49
f 409/226/50 416/228/50 613/227/50
f 416/228/51 423/230/51 615/229/51
f 423/230/52 430/232/52 617/231/52
f 430/232/53 437/234/53 619/233/53
f 437/234/54 444/236/54 621/235/54
f 444/236/55 451/238/55 623/237/55
f 451/238/56 458/240/56 625/239/56
f 458/240/57 465/242/57 627/241/57
f 465/242/58 472/244/58 629/243/58
f 472/244/59 479/246/59 631/245/59
f 479/246/60 486/248/60 633/247/60
f 486/248/61 493/250/61 635/249/61
f 493/250/62 500/252/62 637/251/62
f 500/252/63 507/732/63 639/253/63
f 87/254/64 94/135/64 521/137/64
f 72/133/514 74/814/514 71/255/514
f 71/255/66 74/814/66 75/256/66
f 70/257/67 75/256/67 76/258/67
f 69/260/68 76/815/68 77/261/68
f 68/262/69 77/261/69 78/263/69
f 67/264/70 78/263/70 73/265/70
f 66/131/71 71/255/71 85/266/71
f 85/266/72 71/255/72 70/267/72
f 70/267/73 69/816/73 83/269/73
f 69/270/74 68/262/74 82/271/74
f 68/262/515 67/264/515 81/273/515
f 67/264/76 65/5/76 79/8/76
f 80/1/77 85/817/77 92/274/77
f 92/274/78 85/817/78 84/275/78
f 84/275/79 83/818/79 90/277/79
f 83/278/80 82/271/80 89/279/80
f 82/271/81 81/273/81 88/281/81
f 88/281/82 81/273/82 79/8/82
f 87/254/83 92/274/83 99/282/83
f 92/274/84 91/819/84 98/283/84
f 98/283/85 91/819/85 90/284/85
f 90/286/86 89/279/86 96/287/86
f 89/279/87 88/281/87 95/289/87
f 88/281/88 86/10/88 93/12/88
f 94/135/89 99/282/89 106/290/89
f 99/282/90 98/283/90 105/291/90
f 98/283/91 97/820/91 104/292/91
f 97/293/92 96/287/92 103/294/92
f 96/287/93 95/289/93 102/296/93
f 95/289/94 93/12/94 100/14/94
f 101/138/95 106/290/95 113/297/95
f 113/297/96 106/290/96 105/298/96
f 105/298/97 104/821/97 111/300/97
f 111/301/98 104/822/98 103/294/98
f 110/302/99 103/294/99 102/296/99
f 102/296/100 100/14/100 107/16/100
f 108/140/101 113/823/101 120/304/101
f 120/304/102 113/823/102 112/305/102
f 112/305/103 111/824/103 118/307/103
f 111/308/104 110/302/104 117/309/104
f 110/302/105 109/303/105 116/311/105
f 116/311/106 109/303/106 107/16/106
f 115/142/107 120/304/107 127/312/107
f 120/304/108 119/314/108 126/313/108
f 119/314/109 118/825/109 125/315/109
f 125/316/110 118/826/110 117/309/110
f 117/309/516 116/311/516 123/318/516
f 123/318/112 116/311/112 114/18/112
f 129/146/113 122/144/113 127/312/113
f 127/312/517 126/313/517 133/320/517
f 133/320/115 126/313/115 125/321/115
f 132/323/518 125/827/518 124/317/518
f 124/317/117 123/318/117 130/325/117
f 123/318/118 121/20/118 128/19/118
f 136/148/119 129/146/119 134/319/119
f 134/319/120 133/328/120 140/327/120
f 133/328/121 132/828/121 139/329/121
f 132/330/122 131/324/122 138/331/122
f 131/324/123 130/325/123 137/333/123
f 137/333/124 130/325/124 128/19/124
f 136/148/125 141/335/125 148/334/125
f 141/335/126 140/337/126 147/336/126
f 140/337/127 139/829/127 146/338/127
f 139/339/519 138/331/519 145/340/519
f 138/331/129 137/333/129 144/342/129
f 144/342/130 137/333/130 135/22/130
f 143/150/131 148/334/131 155/343/131
f 148/334/132 147/830/132 154/344/132
f 154/344/133 147/830/133 146/345/133
f 146/347/134 145/340/134 152/348/134
f 152/348/135 145/340/135 144/342/135
f 151/350/136 144/342/136 142/24/136
f 157/154/520 150/152/520 155/343/520
f 155/343/138 154/344/138 161/352/138
f 161/352/139 154/344/139 153/353/139
f 153/355/140 152/348/140 159/356/140
f 159/356/141 152/348/141 151/350/141
f 151/350/142 149/26/142 156/30/142
f 157/154/521 162/351/521 169/359/521
f 162/351/144 161/361/144 168/360/144
f 161/361/145 160/831/145 167/362/145
f 160/363/146 159/356/146 166/364/146
f 159/356/147 158/358/147 165/366/147
f 165/366/148 158/358/148 156/30/148
f 164/156/149 169/832/149 176/367/149
f 176/367/150 169/832/150 168/368/150
f 175/369/151 168/368/151 167/370/151
f 167/372/152 166/364/152 173/373/152
f 166/364/153 165/366/153 172/375/153
f 165/366/154 163/32/154 170/31/154
f 171/158/522 176/367/522 183/376/522
f 176/367/156 175/378/156 182/377/156
f 175/378/157 174/833/157 181/379/157
f 174/380/523 173/373/523 180/381/523
f 173/373/159 172/375/159 179/383/159
f 172/375/160 170/31/160 177/36/160
f 178/160/524 183/376/524 190/384/524
f 190/384/162 183/376/162 182/377/162
f 189/385/163 182/377/163 181/386/163
f 188/388/525 181/834/525 180/381/525
f 187/389/165 180/381/165 179/383/165
f 179/383/166 177/36/166 184/38/166
f 185/162/167 190/384/167 197/391/167
f 190/384/168 189/393/168 196/392/168
f 189/393/169 188/835/169 195/394/169
f 188/395/170 187/389/170 194/396/170
f 187/389/526 186/390/526 193/398/526
f 186/390/172 184/38/172 191/40/172
f 192/164/173 197/836/173 204/399/173
f 204/399/174 197/836/174 196/400/174
f 196/400/175 195/837/175 202/402/175
f 195/403/527 194/396/527 201/404/527
f 194/396/177 193/398/177 200/406/177
f 193/398/178 191/40/178 198/39/178
f 199/166/179 204/399/179 211/407/179
f 204/399/180 203/838/180 210/408/180
f 210/408/181 203/838/181 202/409/181
f 209/411/182 202/839/182 201/404/182
f 208/412/183 201/404/183 200/406/183
f 200/406/184 198/39/184 205/42/184
f 213/170/185 206/168/185 211/407/185
f 211/407/186 210/408/186 217/415/186
f 210/408/187 209/840/187 216/416/187
f 209/417/188 208/412/188 215/418/188
f 208/412/189 207/413/189 214/420/189
f 207/413/190 205/42/190 212/46/190
f 213/170/191 218/414/191 225/421/191
f 225/421/192 218/414/192 217/422/192
f 217/422/193 216/841/193 223/424/193
f 216/425/528 215/418/528 222/426/528
f 215/418/195 214/420/195 221/428/195
f 214/420/196 212/46/196 219/48/196
f 227/174/197 220/172/197 225/429/197
f 232/430/198 225/429/198 224/431/198
f 224/431/199 223/842/199 230/433/199
f 230/434/200 223/843/200 222/426/200
f 222/426/201 221/428/201 228/436/201
f 221/428/202 219/48/202 226/47/202
f 227/174/203 232/430/203 239/437/203
f 239/437/529 232/430/529 231/438/529
f 231/438/205 230/844/205 237/440/205
f 237/441/206 230/845/206 229/435/206
f 229/435/207 228/436/207 235/443/207
f 228/436/208 226/47/208 233/52/208
f 234/176/209 239/437/209 246/444/209
f 239/437/530 238/439/530 245/445/530
f 245/445/211 238/439/211 237/446/211
f 244/448/531 237/846/531 236/442/531
f 243/449/532 236/442/532 235/443/532
f 235/443/214 233/52/214 240/51/214
f 248/180/215 241/178/215 246/444/215
f 246/444/216 245/847/216 252/452/216
f 252/452/217 245/847/217 244/453/217
f 244/455/218 243/449/218 250/456/218
f 243/449/219 242/450/219 249/458/219
f 242/450/220 240/51/220 247/56/220
f 248/180/221 253/848/221 260/459/221
f 260/459/222 253/848/222 252/460/222
f 252/460/223 251/849/223 258/462/223
f 251/463/224 250/456/224 257/464/224
f 250/456/225 249/458/225 256/466/225
f 249/458/226 247/56/226 254/55/226
f 262/184/227 255/182/227 260/459/227
f 267/467/228 260/459/228 259/468/228
f 259/468/229 258/850/229 265/470/229
f 258/471/230 257/464/230 264/472/230
f 264/472/231 257/464/231 256/466/231
f 256/466/232 254/55/232 261/58/232
f 262/184/233 267/467/233 274/475/233
f 274/475/234 267/467/234 266/469/234
f 266/469/235 265/851/235 272/477/235
f 265/478/236 264/472/236 271/479/236
f 271/479/237 264/472/237 263/474/237
f 263/474/238 261/58/238 268/62/238
f 276/188/239 269/186/239 274/475/239
f 274/475/240 273/484/240 280/483/240
f 273/484/241 272/852/241 279/485/241
f 272/486/242 271/479/242 278/487/242
f 278/487/243 271/479/243 270/481/243
f 270/481/244 268/62/244 275/61/244
f 276/188/245 281/491/245 288/490/245
f 281/491/246 280/493/246 287/492/246
f 280/493/247 279/853/247 286/494/247
f 279/495/248 278/487/248 285/496/248
f 285/496/249 278/487/249 277/489/249
f 277/489/250 275/61/250 282/64/250
f 283/190/251 288/490/251 295/499/251
f 288/490/252 287/501/252 294/500/252
f 287/501/253 286/854/253 293/502/253
f 293/503/254 286/855/254 285/496/254
f 292/504/255 285/496/255 284/498/255
f 284/498/256 282/64/256 289/68/256
f 290/192/533 295/499/533 302/506/533
f 302/506/258 295/499/258 294/500/258
f 301/507/259 294/500/259 293/508/259
f 293/510/260 292/504/260 299/511/260
f 299/511/261 292/504/261 291/505/261
f 291/505/262 289/68/262 296/70/262
f 297/194/263 302/506/263 309/514/263
f 302/506/264 301/856/264 308/515/264
f 308/515/265 301/856/265 300/516/265
f 307/518/266 300/857/266 299/511/266
f 306/519/267 299/511/267 298/513/267
f 305/520/268 298/513/268 296/70/268
f 304/196/269 309/522/269 316/521/269
f 309/522/270 308/524/270 315/523/270
f 308/524/271 307/858/271 314/525/271
f 307/526/272 306/519/272 313/527/272
f 306/519/273 305/520/273 312/529/273
f 305/520/274 303/72/274 310/71/274
f 318/200/275 311/198/275 316/521/275
f 316/521/276 315/859/276 322/531/276
f 322/531/277 315/859/277 314/532/277
f 321/534/278 314/860/278 313/527/278
f 313/527/279 312/529/279 319/536/279
f 312/529/280 310/71/280 317/76/280
f 318/200/281 323/530/281 330/537/281
f 323/530/282 322/531/282 329/538/282
f 322/531/283 321/861/283 328/539/283
f 321/540/284 320/535/284 327/541/284
f 320/535/285 319/536/285 326/543/285
f 319/536/286 317/76/286 324/78/286
f 325/202/287 330/537/287 337/544/287
f 337/544/288 330/537/288 329/545/288
f 329/545/289 328/862/289 335/547/289
f 335/548/534 328/863/534 327/541/534
f 334/549/291 327/541/291 326/543/291
f 326/543/292 324/78/292 331/77/292
f 332/204/293 337/552/293 344/551/293
f 337/552/294 336/554/294 343/553/294
f 336/554/295 335/864/295 342/555/295
f 335/556/535 334/549/535 341/557/535
f 334/549/297 333/550/297 340/559/297
f 333/550/298 331/77/298 338/82/298
f 346/208/299 339/206/299 344/551/299
f 351/560/300 344/551/300 343/561/300
f 343/561/301 342/865/301 349/563/301
f 349/564/302 342/866/302 341/557/302
f 348/565/303 341/557/303 340/559/303
f 340/559/304 338/82/304 345/84/304
f 346/208/305 351/560/305 358/567/305
f 351/560/306 350/562/306 357/568/306
f 350/562/307 349/867/307 356/569/307
f 349/570/308 348/565/308 355/571/308
f 355/571/536 348/565/536 347/566/536
f 347/566/310 345/84/310 352/83/310
f 360/212/311 353/210/311 358/567/311
f 358/567/312 357/576/312 364/575/312
f 357/576/313 356/868/313 363/577/313
f 356/578/314 355/571/314 362/579/314
f 362/579/315 355/571/315 354/573/315
f 354/573/316 352/83/316 359/88/316
f 360/212/317 365/583/317 372/582/317
f 365/583/318 364/869/318 371/584/318
f 371/584/319 364/869/319 363/585/319
f 370/587/320 363/870/320 362/579/320
f 369/588/321 362/579/321 361/581/321
f 361/581/322 359/88/322 366/90/322
f 374/216/323 367/214/323 372/582/323
f 372/582/324 371/871/324 378/591/324
f 378/591/325 371/871/325 370/592/325
f 377/594/326 370/872/326 369/588/326
f 376/595/327 369/588/327 368/589/327
f 375/596/328 368/589/328 366/90/328
f 381/218/329 374/216/329 379/590/329
f 379/590/330 378/591/330 385/598/330
f 378/591/331 377/873/331 384/599/331
f 377/600/332 376/595/332 383/601/332
f 383/601/333 376/595/333 375/596/333
f 375/596/334 373/92/334 380/94/334
f 381/218/335 386/597/335 393/604/335
f 386/597/336 385/874/336 392/605/336
f 392/605/337 385/874/337 384/606/337
f 384/608/338 383/601/338 390/609/338
f 390/609/339 383/601/339 382/603/339
f 382/603/340 380/94/340 387/96/340
f 388/220/341 393/613/341 400/612/341
f 393/613/342 392/875/342 399/614/342
f 399/614/343 392/875/343 391/615/343
f 398/617/344 391/876/344 390/609/344
f 397/618/537 390/609/537 389/611/537
f 389/611/346 387/96/346 394/95/346
f 402/224/538 395/222/538 400/612/538
f 400/612/348 399/622/348 406/621/348
f 399/622/539 398/877/539 405/623/539
f 398/624/350 397/618/350 404/625/350
f 397/618/351 396/619/351 403/627/351
f 396/619/352 394/95/352 401/100/352
f 402/224/540 407/620/540 414/628/540
f 407/620/354 406/621/354 413/629/354
f 406/621/355 405/878/355 412/630/355
f 405/631/356 404/625/356 411/632/356
f 404/625/357 403/627/357 410/634/357
f 403/627/358 401/100/358 408/102/358
f 409/226/359 414/628/359 421/635/359
f 421/635/360 414/628/360 413/636/360
f 413/636/361 412/879/361 419/638/361
f 412/639/362 411/632/362 418/640/362
f 411/632/363 410/634/363 417/642/363
f 410/634/364 408/102/364 415/104/364
f 416/228/365 421/880/365 428/643/365
f 428/643/366 421/880/366 420/644/366
f 420/644/541 419/881/541 426/646/541
f 426/647/368 419/882/368 418/640/368
f 425/648/369 418/640/369 417/642/369
f 417/642/370 415/104/370 422/103/370
f 430/232/371 423/230/371 428/643/371
f 435/650/372 428/643/372 427/651/372
f 427/651/373 426/883/373 433/653/373
f 433/654/542 426/884/542 425/648/542
f 425/648/375 424/649/375 431/656/375
f 431/656/376 424/649/376 422/103/376
f 430/232/377 435/650/377 442/657/377
f 442/657/378 435/650/378 434/652/378
f 434/652/379 433/885/379 440/659/379
f 440/660/380 433/886/380 432/655/380
f 432/655/381 431/656/381 438/662/381
f 438/662/382 431/656/382 429/108/382
f 437/234/383 442/657/383 449/663/383
f 449/663/384 442/657/384 441/664/384
f 441/664/385 440/887/385 447/666/385
f 440/667/543 439/661/543 446/668/543
f 446/668/387 439/661/387 438/662/387
f 438/662/388 436/110/388 443/112/388
f 451/238/389 444/236/389 449/671/389
f 456/672/390 449/671/390 448/673/390
f 448/673/391 447/888/391 454/675/391
f 447/676/392 446/668/392 453/677/392
f 453/677/393 446/668/393 445/670/393
f 445/670/394 443/112/394 450/114/394
f 451/238/395 456/672/395 463/680/395
f 456/672/396 455/682/396 462/681/396
f 455/682/397 454/889/397 461/683/397
f 454/684/544 453/677/544 460/685/544
f 460/685/399 453/677/399 452/679/399
f 452/679/400 450/114/400 457/116/400
f 458/240/401 463/680/401 470/688/401
f 470/688/545 463/680/545 462/681/545
f 469/689/403 462/681/403 461/690/403
f 461/692/404 460/685/404 467/693/404
f 467/693/405 460/685/405 459/687/405
f 459/687/406 457/116/406 464/118/406
f 465/242/407 470/688/407 477/696/407
f 477/696/408 470/688/408 469/697/408
f 469/697/409 468/890/409 475/699/409
f 468/700/410 467/693/410 474/701/410
f 467/693/411 466/695/411 473/703/411
f 473/703/412 466/695/412 464/118/412
f 472/244/413 477/891/413 484/704/413
f 484/704/414 477/891/414 476/705/414
f 476/705/415 475/892/415 482/707/415
f 482/708/416 475/893/416 474/701/416
f 474/701/417 473/703/417 480/710/417
f 480/710/418 473/703/418 471/120/418
f 486/248/419 479/246/419 484/704/419
f 484/704/420 483/713/420 490/712/420
f 483/713/421 482/894/421 489/714/421
f 489/715/422 482/895/422 481/709/422
f 488/716/423 481/709/423 480/710/423
f 487/717/424 480/710/424 478/122/424
f 486/248/425 491/711/425 498/718/425
f 491/711/426 490/712/426 497/719/426
f 490/712/427 489/896/427 496/720/427
f 496/721/428 489/897/428 488/716/428
f 488/716/429 487/717/429 494/723/429
f 494/723/430 487/717/430 485/121/430
f 493/250/431 498/718/431 505/724/431
f 505/724/432 498/718/432 497/725/432
f 497/725/433 496/898/433 503/727/433
f 496/728/434 495/722/434 502/729/434
f 495/722/435 494/723/435 501/731/435
f 494/723/436 492/126/436 499/125/436
f 507/732/437 500/252/437 505/733/437
f 505/733/438 504/736/438 511/735/438
f 504/736/439 503/899/439 510/737/439
f 510/738/440 503/900/440 502/729/440
f 502/729/441 501/731/441 508/740/441
f 501/731/442 499/125/442 506/130/442
f 507/732/546 512/734/546 74/741/546
f 512/734/444 511/744/444 75/743/444
f 511/744/445 510/901/445 76/745/445
f 510/746/446 509/739/446 77/261/446
f 77/261/447 509/739/447 508/740/447
f 508/740/448 506/130/448 73/265/448
f 2/6/2 65/5/2 73/265/2
f 507/732/449 72/742/449 514/748/449
f 515/132/450 516/902/450 513/749/450
f 517/3/451 518/752/451 516/750/451
f 517/3/452 519/2/452 520/751/452
f 519/2/453 521/137/453 522/753/453
f 521/137/454 523/136/454 524/754/454
f 523/136/455 525/139/455 526/755/455
f 527/141/456 528/756/456 526/755/456
f 529/143/457 530/758/457 528/756/457
f 529/143/458 531/145/458 532/757/458
f 531/145/459 533/147/459 534/759/459
f 535/149/460 536/760/460 534/759/460
f 537/151/461 538/761/461 536/760/461
f 539/153/462 540/762/462 538/761/462
f 541/155/463 542/764/463 540/762/463
f 541/155/464 543/157/464 544/763/464
f 543/157/465 545/159/465 546/765/465
f 547/161/466 548/766/466 546/765/466
f 549/163/467 550/768/467 548/766/467
f 549/163/468 551/165/468 552/767/468
f 551/165/469 553/167/469 554/769/469
f 553/167/470 555/169/470 556/770/470
f 555/169/471 557/171/471 558/771/471
f 559/173/472 560/772/472 558/771/472
f 561/175/473 562/774/473 560/772/473
f 561/175/474 563/177/474 564/773/474
f 563/177/475 565/179/475 566/775/475
f 567/181/476 568/777/476 566/775/476
f 567/181/477 569/183/477 570/776/477
f 571/185/478 572/778/478 570/776/478
f 573/187/479 574/780/479 572/778/479
f 573/187/480 575/189/480 576/779/480
f 575/189/481 577/191/481 578/781/481
f 579/193/482 580/782/482 578/781/482
f 581/195/483 582/784/483 580/782/483
f 581/195/484 583/197/484 584/783/484
f 583/197/485 585/199/485 586/785/485
f 587/201/486 588/786/486 586/785/486
f 589/203/487 590/787/487 588/786/487
f 591/205/488 592/789/488 590/787/488
f 591/205/489 593/207/489 594/788/489
f 593/207/490 595/209/490 596/790/490
f 597/211/491 598/791/491 596/790/491
f 599/213/492 600/793/492 598/791/492
f 599/213/493 601/215/493 602/792/493
f 603/217/494 604/794/494 602/792/494
f 605/219/495 606/796/495 604/794/495
f 605/219/496 607/221/496 608/795/496
f 607/221/497 609/223/497 610/797/497
f 611/225/547 612/798/547 610/797/547
f 613/227/499 614/800/499 612/798/499
f 613/227/500 615/229/500 616/799/500
f 617/231/501 618/801/501 616/799/501
f 619/233/502 620/803/502 618/801/502
f 619/233/503 621/235/503 622/802/503
f 621/235/504 623/237/504 624/804/504
f 623/237/505 625/239/505 626/805/505
f 625/239/506 627/241/506 628/806/506
f 627/241/507 629/243/507 630/807/507
f 631/245/508 632/808/508 630/807/508
f 633/247/509 634/809/509 632/808/509
f 635/249/510 636/810/510 634/809/510
f 637/251/511 638/812/511 636/810/511
f 637/251/512 639/253/512 640/811/512
f 639/253/513 514/748/513 513/813/513
