# Blender v2.80 (sub 75) OBJ File: 'Crossbow.blend'
# www.blender.org
v -0.100000 -0.100000 1.000000
v -0.100000 0.100000 1.000000
v -0.100000 -0.100000 -1.000000
v -0.100000 0.100000 -1.000000
v 0.100000 -0.100000 1.000000
v 0.100000 0.100000 1.000000
v 0.100000 -0.100000 -1.000000
v 0.100000 0.100000 -1.000000
v 0.100000 -0.100000 0.800000
v 0.100000 0.100000 0.800000
v -0.100000 -0.100000 0.800000
v -0.100000 0.100000 0.800000
v 1.100000 0.100000 0.400000
v 1.100000 0.100000 0.600000
v 1.100000 -0.100000 0.600000
v 1.100000 -0.100000 0.400000
v -1.100000 -0.100000 0.400000
v -1.100000 -0.100000 0.600000
v -1.100000 0.100000 0.600000
v -1.100000 0.100000 0.400000
vn -1.0000 0.0000 0.0000
vn 0.0000 0.0000 -1.0000
vn 0.3714 0.0000 0.9285
vn 0.0000 0.0000 1.0000
vn 0.0000 -1.0000 0.0000
vn 0.0000 1.0000 0.0000
vn 1.0000 0.0000 0.0000
vn -0.3714 0.0000 -0.9285
vn -0.3714 0.0000 0.9285
vn 0.3714 0.0000 -0.9285
s off
f 12//1 3//1 11//1
f 4//2 7//2 3//2
f 5//3 14//3 6//3
f 6//4 1//4 5//4
f 5//5 1//5 11//5
f 2//6 6//6 10//6
f 8//7 9//7 7//7
f 12//6 19//6 2//6
f 13//7 15//7 16//7
f 10//8 16//8 9//8
f 9//5 15//5 5//5
f 10//6 14//6 13//6
f 19//1 17//1 18//1
f 2//9 18//9 1//9
f 11//10 20//10 12//10
f 11//5 18//5 17//5
f 12//1 4//1 3//1
f 4//2 8//2 7//2
f 5//3 15//3 14//3
f 6//4 2//4 1//4
f 11//5 3//5 7//5
f 7//5 9//5 11//5
f 9//5 5//5 11//5
f 10//6 8//6 4//6
f 4//6 12//6 10//6
f 12//6 2//6 10//6
f 8//7 10//7 9//7
f 12//6 20//6 19//6
f 13//7 14//7 15//7
f 10//8 13//8 16//8
f 9//5 16//5 15//5
f 10//6 6//6 14//6
f 19//1 20//1 17//1
f 2//9 19//9 18//9
f 11//10 17//10 20//10
f 11//5 1//5 18//5
