# Blender v2.80 (sub 75) OBJ File: 'LightingCube.blend'
# www.blender.org
mtllib LightingCube.mtl
v 1.000000 1.000000 -1.000000
v 1.000000 -1.000000 -1.000000
v 1.000000 1.000000 1.000000
v 1.000000 -1.000000 1.000000
v -1.000000 1.000000 -1.000000
v -1.000000 -1.000000 -1.000000
v -1.000000 1.000000 1.000000
v -1.000000 -1.000000 1.000000
vt 1.000000 0.000000
vt 0.000000 1.000000
vt 0.000000 0.000000
vt 1.000000 1.000000
vt 1.000000 0.000000
vt 0.000000 1.000000
vt 0.000000 0.000000
vt 1.000000 1.000000
vt 1.000000 0.000000
vt 0.000000 1.000000
vt 0.000000 0.000000
vt 0.000000 1.000000
vt 0.000000 0.000000
vt 1.000000 1.000000
vt 1.000000 0.000000
vt 1.000000 1.000000
vt 1.000000 0.000000
vt 0.000000 1.000000
vt 0.000000 0.000000
vt 1.000000 1.000000
vn -1.0000 0.0000 0.0000
vn 0.0000 1.0000 0.0000
vn 0.0000 0.0000 1.0000
vn 0.0000 0.0000 -1.0000
vn 0.0000 -1.0000 0.0000
vn 1.0000 0.0000 0.0000
usemtl Red
s off
f 7/1/1 6/2/1 8/3/1
f 7/1/1 5/4/1 6/2/1
usemtl Green
f 5/5/2 3/6/2 1/7/2
f 5/5/2 7/8/2 3/6/2
usemtl Blue
f 3/9/3 8/10/3 4/11/3
f 3/9/3 7/8/3 8/10/3
usemtl Yellow
f 5/5/4 2/12/4 6/13/4
f 5/5/4 1/14/4 2/12/4
usemtl Cyan
f 2/15/5 8/10/5 6/13/5
f 2/15/5 4/16/5 8/10/5
usemtl Violet
f 1/17/6 4/18/6 2/19/6
f 1/17/6 3/20/6 4/18/6
