# Blender MTL File: 'Rope.blend'
# Material Count: 1

newmtl Rope
Ns 225.000000
Ka 1.000000 1.000000 1.000000
Kd 0.800000 0.800000 0.800000
Ks 0.125000 0.125000 0.125000
Ke 0.0 0.0 0.0
Ni 1.450000
d 1.000000
illum 2
map_Kd F:\\Users\\Mark\\Documents\\Projects\\Rex\\Rex\\Content\\Textures\\Rope.png
